0 0 
0.01 0.00831658 
0.02 0.0166188 
0.03 0.024906 
0.04 0.0331776 
0.05 0.0414333 
0.06 0.0496723 
0.07 0.0578941 
0.08 0.0660983 
0.09 0.0742842 
0.1 0.0824514 
0.11 0.0905992 
0.12 0.0987272 
0.13 0.106835 
0.14 0.114922 
0.15 0.122987 
0.16 0.13103 
0.17 0.139051 
0.18 0.147049 
0.19 0.155023 
0.2 0.162974 
0.21 0.1709 
0.22 0.1788 
0.23 0.186676 
0.24 0.194525 
0.25 0.202347 
0.26 0.210143 
0.27 0.217911 
0.28 0.225651 
0.29 0.233363 
0.3 0.241045 
0.31 0.248698 
0.32 0.256321 
0.33 0.263913 
0.34 0.271475 
0.35 0.279005 
0.36 0.286503 
0.37 0.293969 
0.38 0.301402 
0.39 0.308802 
0.4 0.316168 
0.41 0.3235 
0.42 0.330798 
0.43 0.33806 
0.44 0.345287 
0.45 0.352477 
0.46 0.359631 
0.47 0.366749 
0.48 0.373829 
0.49 0.380872 
0.5 0.387876 
0.51 0.394842 
0.52 0.401768 
0.53 0.408656 
0.54 0.415503 
0.55 0.422311 
0.56 0.429077 
0.57 0.435803 
0.58 0.442487 
0.59 0.44913 
0.6 0.45573 
0.61 0.462288 
0.62 0.468803 
0.63 0.475274 
0.64 0.481702 
0.65 0.488085 
0.66 0.494424 
0.67 0.500718 
0.68 0.506967 
0.69 0.513171 
0.7 0.519328 
0.71 0.52544 
0.72 0.531504 
0.73 0.537522 
0.74 0.543492 
0.75 0.549415 
0.76 0.55529 
0.77 0.561116 
0.78 0.566894 
0.79 0.572623 
0.8 0.578303 
0.81 0.583933 
0.82 0.589513 
0.83 0.595044 
0.84 0.600523 
0.85 0.605952 
0.86 0.61133 
0.87 0.616656 
0.88 0.621931 
0.89 0.627154 
0.9 0.632325 
0.91 0.637443 
0.92 0.642509 
0.93 0.647521 
0.94 0.65248 
0.95 0.657386 
0.96 0.662238 
0.97 0.667036 
0.98 0.67178 
0.99 0.676469 
1 0.681104 
1.01 0.685683 
1.02 0.690208 
1.03 0.694677 
1.04 0.69909 
1.05 0.703448 
1.06 0.707749 
1.07 0.711994 
1.08 0.716183 
1.09 0.720315 
1.1 0.724391 
1.11 0.728409 
1.12 0.73237 
1.13 0.736274 
1.14 0.74012 
1.15 0.743908 
1.16 0.747639 
1.17 0.751311 
1.18 0.754925 
1.19 0.758481 
1.2 0.761979 
1.21 0.765417 
1.22 0.768797 
1.23 0.772118 
1.24 0.77538 
1.25 0.778582 
1.26 0.781726 
1.27 0.78481 
1.28 0.787834 
1.29 0.790798 
1.3 0.793703 
1.31 0.796548 
1.32 0.799333 
1.33 0.802058 
1.34 0.804723 
1.35 0.807327 
1.36 0.809871 
1.37 0.812355 
1.38 0.814778 
1.39 0.817141 
1.4 0.819443 
1.41 0.821684 
1.42 0.823865 
1.43 0.825985 
1.44 0.828044 
1.45 0.830042 
1.46 0.831979 
1.47 0.833856 
1.48 0.835671 
1.49 0.837426 
1.5 0.839119 
1.51 0.840751 
1.52 0.842323 
1.53 0.843833 
1.54 0.845283 
1.55 0.846671 
1.56 0.847998 
1.57 0.849264 
1.58 0.850469 
1.59 0.851614 
1.6 0.852697 
1.61 0.853719 
1.62 0.854681 
1.63 0.855581 
1.64 0.856421 
1.65 0.8572 
1.66 0.857918 
1.67 0.858575 
1.68 0.859172 
1.69 0.859708 
1.7 0.860184 
1.71 0.860599 
1.72 0.860954 
1.73 0.861248 
1.74 0.861482 
1.75 0.861657 
1.76 0.861771 
1.77 0.861825 
1.78 0.861819 
1.79 0.861753 
1.8 0.861628 
1.81 0.861444 
1.82 0.861199 
1.83 0.860896 
1.84 0.860533 
1.85 0.860111 
1.86 0.859631 
1.87 0.859091 
1.88 0.858493 
1.89 0.857836 
1.9 0.857121 
1.91 0.856347 
1.92 0.855516 
1.93 0.854626 
1.94 0.853679 
1.95 0.852674 
1.96 0.851611 
1.97 0.850491 
1.98 0.849315 
1.99 0.848081 
2 0.84679 
2.01 0.845443 
2.02 0.844039 
2.03 0.84258 
2.04 0.841064 
2.05 0.839492 
2.06 0.837865 
2.07 0.836182 
2.08 0.834444 
2.09 0.832652 
2.1 0.830804 
2.11 0.828902 
2.12 0.826945 
2.13 0.824935 
2.14 0.82287 
2.15 0.820752 
2.16 0.818581 
2.17 0.816356 
2.18 0.814078 
2.19 0.811748 
2.2 0.809365 
2.21 0.806931 
2.22 0.804444 
2.23 0.801905 
2.24 0.799316 
2.25 0.796675 
2.26 0.793983 
2.27 0.79124 
2.28 0.788448 
2.29 0.785605 
2.3 0.782712 
2.31 0.77977 
2.32 0.776779 
2.33 0.773739 
2.34 0.77065 
2.35 0.767513 
2.36 0.764328 
2.37 0.761095 
2.38 0.757815 
2.39 0.754488 
2.4 0.751114 
2.41 0.747693 
2.42 0.744226 
2.43 0.740714 
2.44 0.737156 
2.45 0.733552 
2.46 0.729904 
2.47 0.726211 
2.48 0.722475 
2.49 0.718694 
2.5 0.714869 
2.51 0.711002 
2.52 0.707091 
2.53 0.703138 
2.54 0.699143 
2.55 0.695105 
2.56 0.691027 
2.57 0.686907 
2.58 0.682747 
2.59 0.678546 
2.6 0.674305 
2.61 0.670024 
2.62 0.665704 
2.63 0.661345 
2.64 0.656947 
2.65 0.652511 
2.66 0.648037 
2.67 0.643526 
2.68 0.638977 
2.69 0.634392 
2.7 0.62977 
2.71 0.625113 
2.72 0.62042 
2.73 0.615691 
2.74 0.610928 
2.75 0.60613 
2.76 0.601298 
2.77 0.596433 
2.78 0.591534 
2.79 0.586603 
2.8 0.581638 
2.81 0.576642 
2.82 0.571614 
2.83 0.566555 
2.84 0.561465 
2.85 0.556345 
2.86 0.551194 
2.87 0.546014 
2.88 0.540805 
2.89 0.535566 
2.9 0.5303 
2.91 0.525005 
2.92 0.519682 
2.93 0.514333 
2.94 0.508957 
2.95 0.503554 
2.96 0.498125 
2.97 0.492671 
2.98 0.487192 
2.99 0.481688 
3 0.47616 
3.01 0.470608 
3.02 0.465032 
3.03 0.459434 
3.04 0.453813 
3.05 0.44817 
3.06 0.442505 
3.07 0.436819 
3.08 0.431113 
3.09 0.425385 
3.1 0.419638 
3.11 0.413871 
3.12 0.408085 
3.13 0.402281 
3.14 0.396458 
3.15 0.390617 
3.16 0.384759 
3.17 0.378884 
3.18 0.372993 
3.19 0.367086 
3.2 0.361162 
3.21 0.355224 
3.22 0.349271 
3.23 0.343304 
3.24 0.337322 
3.25 0.331328 
3.26 0.32532 
3.27 0.319299 
3.28 0.313267 
3.29 0.307223 
3.3 0.301168 
3.31 0.295101 
3.32 0.289025 
3.33 0.282938 
3.34 0.276842 
3.35 0.270737 
3.36 0.264623 
3.37 0.258502 
3.38 0.252372 
3.39 0.246235 
3.4 0.240091 
3.41 0.233941 
3.42 0.227785 
3.43 0.221623 
3.44 0.215456 
3.45 0.209285 
3.46 0.203109 
3.47 0.196929 
3.48 0.190746 
3.49 0.18456 
3.5 0.178372 
3.51 0.172181 
3.52 0.165989 
3.53 0.159796 
3.54 0.153602 
3.55 0.147407 
3.56 0.141213 
3.57 0.135019 
3.58 0.128826 
3.59 0.122634 
3.6 0.116444 
3.61 0.110257 
3.62 0.104072 
3.63 0.0978899 
3.64 0.0917115 
3.65 0.0855371 
3.66 0.079367 
3.67 0.0732016 
3.68 0.0670414 
3.69 0.0608869 
3.7 0.0547383 
3.71 0.0485962 
3.72 0.0424609 
3.73 0.0363329 
3.74 0.0302126 
3.75 0.0241004 
3.76 0.0179966 
3.77 0.0119018 
3.78 0.00581627 
3.79 -0.000259523 
3.8 -0.00632519 
3.81 -0.0123803 
3.82 -0.0184245 
3.83 -0.0244574 
3.84 -0.0304785 
3.85 -0.0364875 
3.86 -0.042484 
3.87 -0.0484676 
3.88 -0.0544378 
3.89 -0.0603943 
3.9 -0.0663367 
3.91 -0.0722647 
3.92 -0.0781777 
3.93 -0.0840755 
3.94 -0.0899577 
3.95 -0.0958238 
3.96 -0.101674 
3.97 -0.107506 
3.98 -0.113322 
3.99 -0.11912 
4 -0.124901 
4.01 -0.130663 
4.02 -0.136406 
4.03 -0.142131 
4.04 -0.147836 
4.05 -0.153521 
4.06 -0.159186 
4.07 -0.164831 
4.08 -0.170454 
4.09 -0.176057 
4.1 -0.181638 
4.11 -0.187197 
4.12 -0.192735 
4.13 -0.198249 
4.14 -0.20374 
4.15 -0.209209 
4.16 -0.214653 
4.17 -0.220074 
4.18 -0.22547 
4.19 -0.230842 
4.2 -0.236189 
4.21 -0.241511 
4.22 -0.246806 
4.23 -0.252076 
4.24 -0.25732 
4.25 -0.262537 
4.26 -0.267728 
4.27 -0.272891 
4.28 -0.278026 
4.29 -0.283134 
4.3 -0.288214 
4.31 -0.293265 
4.32 -0.298287 
4.33 -0.303281 
4.34 -0.308245 
4.35 -0.313179 
4.36 -0.318084 
4.37 -0.322958 
4.38 -0.327801 
4.39 -0.332614 
4.4 -0.337396 
4.41 -0.342147 
4.42 -0.346866 
4.43 -0.351553 
4.44 -0.356207 
4.45 -0.36083 
4.46 -0.365419 
4.47 -0.369976 
4.48 -0.374499 
4.49 -0.378989 
4.5 -0.383445 
4.51 -0.387867 
4.52 -0.392255 
4.53 -0.396608 
4.54 -0.400927 
4.55 -0.40521 
4.56 -0.409459 
4.57 -0.413672 
4.58 -0.417849 
4.59 -0.42199 
4.6 -0.426095 
4.61 -0.430164 
4.62 -0.434196 
4.63 -0.438191 
4.64 -0.442149 
4.65 -0.44607 
4.66 -0.449954 
4.67 -0.4538 
4.68 -0.457608 
4.69 -0.461378 
4.7 -0.465109 
4.71 -0.468802 
4.72 -0.472457 
4.73 -0.476072 
4.74 -0.479649 
4.75 -0.483186 
4.76 -0.486684 
4.77 -0.490143 
4.78 -0.493561 
4.79 -0.49694 
4.8 -0.500279 
4.81 -0.503577 
4.82 -0.506835 
4.83 -0.510052 
4.84 -0.513229 
4.85 -0.516365 
4.86 -0.51946 
4.87 -0.522513 
4.88 -0.525525 
4.89 -0.528496 
4.9 -0.531425 
4.91 -0.534313 
4.92 -0.537158 
4.93 -0.539962 
4.94 -0.542723 
4.95 -0.545443 
4.96 -0.548119 
4.97 -0.550754 
4.98 -0.553346 
4.99 -0.555895 
5 -0.558401 
5.01 -0.560864 
5.02 -0.563285 
5.03 -0.565662 
5.04 -0.567996 
5.05 -0.570287 
5.06 -0.572535 
5.07 -0.574739 
5.08 -0.576899 
5.09 -0.579016 
5.1 -0.581089 
5.11 -0.583119 
5.12 -0.585104 
5.13 -0.587046 
5.14 -0.588944 
5.15 -0.590798 
5.16 -0.592607 
5.17 -0.594373 
5.18 -0.596094 
5.19 -0.597772 
5.2 -0.599405 
5.21 -0.600993 
5.22 -0.602538 
5.23 -0.604038 
5.24 -0.605493 
5.25 -0.606905 
5.26 -0.608271 
5.27 -0.609594 
5.28 -0.610871 
5.29 -0.612105 
5.3 -0.613293 
5.31 -0.614438 
5.32 -0.615537 
5.33 -0.616593 
5.34 -0.617603 
5.35 -0.61857 
5.36 -0.619491 
5.37 -0.620368 
5.38 -0.621201 
5.39 -0.621989 
5.4 -0.622733 
5.41 -0.623432 
5.42 -0.624087 
5.43 -0.624698 
5.44 -0.625264 
5.45 -0.625786 
5.46 -0.626264 
5.47 -0.626697 
5.48 -0.627086 
5.49 -0.627431 
5.5 -0.627732 
5.51 -0.627989 
5.52 -0.628202 
5.53 -0.628371 
5.54 -0.628496 
5.55 -0.628577 
5.56 -0.628615 
5.57 -0.628609 
5.58 -0.628559 
5.59 -0.628466 
5.6 -0.62833 
5.61 -0.62815 
5.62 -0.627926 
5.63 -0.62766 
5.64 -0.62735 
5.65 -0.626998 
5.66 -0.626603 
5.67 -0.626164 
5.68 -0.625683 
5.69 -0.62516 
5.7 -0.624594 
5.71 -0.623986 
5.72 -0.623335 
5.73 -0.622642 
5.74 -0.621907 
5.75 -0.621131 
5.76 -0.620312 
5.77 -0.619452 
5.78 -0.61855 
5.79 -0.617607 
5.8 -0.616623 
5.81 -0.615597 
5.82 -0.61453 
5.83 -0.613423 
5.84 -0.612275 
5.85 -0.611086 
5.86 -0.609857 
5.87 -0.608588 
5.88 -0.607279 
5.89 -0.605929 
5.9 -0.60454 
5.91 -0.603111 
5.92 -0.601643 
5.93 -0.600136 
5.94 -0.598589 
5.95 -0.597004 
5.96 -0.595379 
5.97 -0.593716 
5.98 -0.592015 
5.99 -0.590275 
6 -0.588498 
6.01 -0.586682 
6.02 -0.584829 
6.03 -0.582939 
6.04 -0.581011 
6.05 -0.579046 
6.06 -0.577044 
6.07 -0.575005 
6.08 -0.57293 
6.09 -0.570819 
6.1 -0.568671 
6.11 -0.566488 
6.12 -0.564269 
6.13 -0.562015 
6.14 -0.559725 
6.15 -0.5574 
6.16 -0.555041 
6.17 -0.552647 
6.18 -0.550218 
6.19 -0.547756 
6.2 -0.545259 
6.21 -0.542729 
6.22 -0.540166 
6.23 -0.537569 
6.24 -0.53494 
6.25 -0.532277 
6.26 -0.529582 
6.27 -0.526855 
6.28 -0.524096 
6.29 -0.521305 
6.3 -0.518483 
6.31 -0.515629 
6.32 -0.512744 
6.33 -0.509829 
6.34 -0.506883 
6.35 -0.503907 
6.36 -0.5009 
6.37 -0.497864 
6.38 -0.494799 
6.39 -0.491704 
6.4 -0.488581 
6.41 -0.485428 
6.42 -0.482248 
6.43 -0.479039 
6.44 -0.475802 
6.45 -0.472538 
6.46 -0.469246 
6.47 -0.465927 
6.48 -0.462581 
6.49 -0.459209 
6.5 -0.455811 
6.51 -0.452387 
6.52 -0.448937 
6.53 -0.445461 
6.54 -0.441961 
6.55 -0.438435 
6.56 -0.434885 
6.57 -0.431311 
6.58 -0.427713 
6.59 -0.424091 
6.6 -0.420446 
6.61 -0.416778 
6.62 -0.413087 
6.63 -0.409373 
6.64 -0.405637 
6.65 -0.40188 
6.66 -0.3981 
6.67 -0.3943 
6.68 -0.390478 
6.69 -0.386635 
6.7 -0.382773 
6.71 -0.37889 
6.72 -0.374987 
6.73 -0.371064 
6.74 -0.367123 
6.75 -0.363163 
6.76 -0.359184 
6.77 -0.355186 
6.78 -0.351171 
6.79 -0.347138 
6.8 -0.343088 
6.81 -0.33902 
6.82 -0.334936 
6.83 -0.330835 
6.84 -0.326719 
6.85 -0.322586 
6.86 -0.318438 
6.87 -0.314275 
6.88 -0.310097 
6.89 -0.305904 
6.9 -0.301697 
6.91 -0.297476 
6.92 -0.293242 
6.93 -0.288994 
6.94 -0.284734 
6.95 -0.28046 
6.96 -0.276175 
6.97 -0.271877 
6.98 -0.267567 
6.99 -0.263247 
7 -0.258915 
7.01 -0.254572 
7.02 -0.250219 
7.03 -0.245856 
7.04 -0.241483 
7.05 -0.2371 
7.06 -0.232709 
7.07 -0.228308 
7.08 -0.2239 
7.09 -0.219482 
7.1 -0.215057 
7.11 -0.210625 
7.12 -0.206185 
7.13 -0.201738 
7.14 -0.197285 
7.15 -0.192825 
7.16 -0.18836 
7.17 -0.183889 
7.18 -0.179412 
7.19 -0.174931 
7.2 -0.170445 
7.21 -0.165954 
7.22 -0.16146 
7.23 -0.156961 
7.24 -0.15246 
7.25 -0.147955 
7.26 -0.143447 
7.27 -0.138937 
7.28 -0.134425 
7.29 -0.129911 
7.3 -0.125396 
7.31 -0.120879 
7.32 -0.116362 
7.33 -0.111844 
7.34 -0.107325 
7.35 -0.102807 
7.36 -0.0982894 
7.37 -0.0937723 
7.38 -0.0892562 
7.39 -0.0847414 
7.4 -0.0802283 
7.41 -0.0757171 
7.42 -0.0712081 
7.43 -0.0667017 
7.44 -0.0621982 
7.45 -0.0576979 
7.46 -0.053201 
7.47 -0.048708 
7.48 -0.044219 
7.49 -0.0397345 
7.5 -0.0352546 
7.51 -0.0307798 
7.52 -0.0263103 
7.53 -0.0218463 
7.54 -0.0173883 
7.55 -0.0129366 
7.56 -0.00849127 
7.57 -0.00405279 
7.58 0.000378578 
7.59 0.00480255 
7.6 0.00921883 
7.61 0.0136271 
7.62 0.0180271 
7.63 0.0224186 
7.64 0.0268011 
7.65 0.0311746 
7.66 0.0355386 
7.67 0.0398928 
7.68 0.0442371 
7.69 0.048571 
7.7 0.0528944 
7.71 0.0572069 
7.72 0.0615083 
7.73 0.0657982 
7.74 0.0700764 
7.75 0.0743427 
7.76 0.0785967 
7.77 0.0828382 
7.78 0.0870669 
7.79 0.0912825 
7.8 0.0954847 
7.81 0.0996734 
7.82 0.103848 
7.83 0.108009 
7.84 0.112155 
7.85 0.116286 
7.86 0.120403 
7.87 0.124504 
7.88 0.12859 
7.89 0.13266 
7.9 0.136715 
7.91 0.140753 
7.92 0.144774 
7.93 0.148779 
7.94 0.152767 
7.95 0.156737 
7.96 0.16069 
7.97 0.164626 
7.98 0.168543 
7.99 0.172442 
8 0.176323 
8.01 0.180185 
8.02 0.184028 
8.03 0.187852 
8.04 0.191657 
8.05 0.195442 
8.06 0.199207 
8.07 0.202952 
8.08 0.206677 
8.09 0.210381 
8.1 0.214064 
8.11 0.217727 
8.12 0.221368 
8.13 0.224988 
8.14 0.228586 
8.15 0.232162 
8.16 0.235717 
8.17 0.239249 
8.18 0.242758 
8.19 0.246245 
8.2 0.249709 
8.21 0.25315 
8.22 0.256568 
8.23 0.259962 
8.24 0.263332 
8.25 0.266679 
8.26 0.270002 
8.27 0.2733 
8.28 0.276574 
8.29 0.279823 
8.3 0.283047 
8.31 0.286247 
8.32 0.289421 
8.33 0.29257 
8.34 0.295693 
8.35 0.298791 
8.36 0.301863 
8.37 0.304908 
8.38 0.307928 
8.39 0.310921 
8.4 0.313887 
8.41 0.316827 
8.42 0.31974 
8.43 0.322626 
8.44 0.325485 
8.45 0.328317 
8.46 0.33112 
8.47 0.333897 
8.48 0.336645 
8.49 0.339366 
8.5 0.342059 
8.51 0.344723 
8.52 0.347359 
8.53 0.349967 
8.54 0.352545 
8.55 0.355096 
8.56 0.357617 
8.57 0.360109 
8.58 0.362572 
8.59 0.365006 
8.6 0.367411 
8.61 0.369786 
8.62 0.372132 
8.63 0.374447 
8.64 0.376733 
8.65 0.378989 
8.66 0.381215 
8.67 0.383411 
8.68 0.385577 
8.69 0.387712 
8.7 0.389817 
8.71 0.391891 
8.72 0.393935 
8.73 0.395947 
8.74 0.39793 
8.75 0.399881 
8.76 0.401801 
8.77 0.40369 
8.78 0.405548 
8.79 0.407375 
8.8 0.40917 
8.81 0.410934 
8.82 0.412667 
8.83 0.414368 
8.84 0.416038 
8.85 0.417676 
8.86 0.419282 
8.87 0.420857 
8.88 0.422399 
8.89 0.42391 
8.9 0.425389 
8.91 0.426836 
8.92 0.428251 
8.93 0.429634 
8.94 0.430984 
8.95 0.432303 
8.96 0.43359 
8.97 0.434844 
8.98 0.436066 
8.99 0.437256 
9 0.438413 
9.01 0.439538 
9.02 0.440631 
9.03 0.441691 
9.04 0.442719 
9.05 0.443714 
9.06 0.444678 
9.07 0.445608 
9.08 0.446506 
9.09 0.447372 
9.1 0.448205 
9.11 0.449006 
9.12 0.449774 
9.13 0.45051 
9.14 0.451214 
9.15 0.451884 
9.16 0.452523 
9.17 0.453129 
9.18 0.453702 
9.19 0.454243 
9.2 0.454752 
9.21 0.455229 
9.22 0.455672 
9.23 0.456084 
9.24 0.456463 
9.25 0.45681 
9.26 0.457125 
9.27 0.457408 
9.28 0.457658 
9.29 0.457876 
9.3 0.458062 
9.31 0.458216 
9.32 0.458338 
9.33 0.458428 
9.34 0.458486 
9.35 0.458512 
9.36 0.458506 
9.37 0.458468 
9.38 0.458399 
9.39 0.458298 
9.4 0.458166 
9.41 0.458001 
9.42 0.457806 
9.43 0.457579 
9.44 0.45732 
9.45 0.45703 
9.46 0.456709 
9.47 0.456357 
9.48 0.455974 
9.49 0.45556 
9.5 0.455115 
9.51 0.454639 
9.52 0.454132 
9.53 0.453595 
9.54 0.453027 
9.55 0.452429 
9.56 0.4518 
9.57 0.451141 
9.58 0.450452 
9.59 0.449733 
9.6 0.448983 
9.61 0.448204 
9.62 0.447395 
9.63 0.446556 
9.64 0.445688 
9.65 0.444791 
9.66 0.443863 
9.67 0.442907 
9.68 0.441922 
9.69 0.440907 
9.7 0.439864 
9.71 0.438792 
9.72 0.437691 
9.73 0.436562 
9.74 0.435404 
9.75 0.434218 
9.76 0.433004 
9.77 0.431762 
9.78 0.430492 
9.79 0.429194 
9.8 0.427868 
9.81 0.426516 
9.82 0.425135 
9.83 0.423728 
9.84 0.422294 
9.85 0.420832 
9.86 0.419344 
9.87 0.417829 
9.88 0.416288 
9.89 0.414721 
9.9 0.413127 
9.91 0.411508 
9.92 0.409862 
9.93 0.408191 
9.94 0.406494 
9.95 0.404772 
9.96 0.403025 
9.97 0.401253 
9.98 0.399455 
9.99 0.397633 
10 0.395787 
