%!PS-Adobe-3.0 EPSF-3.0
%%BoundingBox: (atend)
%%LanguageLevel: 2
%%Creator: Grace-5.1.24
%%CreationDate: Tue Apr 12 10:10:32 2016
%%DocumentData: Clean8Bit
%%Orientation: Portrait
%%Title: /home/juanchoflo/Escritorio/UNAL2016-1/SimulacionSistemasFisicos/FuerzaDeMagnus/TrayectoriaZvsY.agr
%%For: juanchoflo
%%DocumentNeededResources: (atend)
%%EndComments
%%BeginProlog
/m {moveto} def
/l {lineto} def
/s {stroke} def
/n {newpath} def
/c {closepath} def
/RL {rlineto} def
/SLW {setlinewidth} def
/GS {gsave} def
/GR {grestore} def
/SC {setcolor} def
/SGRY {setgray} def
/SRGB {setrgbcolor} def
/SD {setdash} def
/SLC {setlinecap} def
/SLJ {setlinejoin} def
/SCS {setcolorspace} def
/FFSF {findfont setfont} def
/CC {concat} def
/PXL {n m 0 0 RL s} def
/Color0 {1.0000 1.0000 1.0000} def
/Color1 {0.0000 0.0000 0.0000} def
/Color2 {1.0000 0.0000 0.0000} def
/Color3 {0.0000 1.0000 0.0000} def
/Color4 {0.0000 0.0000 1.0000} def
/Color5 {1.0000 1.0000 0.0000} def
/Color6 {0.7373 0.5608 0.5608} def
/Color7 {0.8627 0.8627 0.8627} def
/Color8 {0.5804 0.0000 0.8275} def
/Color9 {0.0000 1.0000 1.0000} def
/Color10 {1.0000 0.0000 1.0000} def
/Color11 {1.0000 0.6471 0.0000} def
/Color12 {0.4471 0.1294 0.7373} def
/Color13 {0.4039 0.0275 0.2824} def
/Color14 {0.2510 0.8784 0.8157} def
/Color15 {0.0000 0.5451 0.0000} def
/Color16 {0.7529 0.7529 0.7529} def
/Color17 {0.5059 0.5059 0.5059} def
/Color18 {0.2588 0.2588 0.2588} def
/PTRN {
 /pat_bits exch def 
 <<
  /PaintType 2
  /PatternType 1 /TilingType 1
  /BBox[0 0 16 16]
  /XStep 16 /YStep 16
  /PaintProc {
   pop
   16 16 true [-1 0 0 -1 16 16] pat_bits imagemask
  }
 >>
 [0.0016 0 0 0.0016 0 0]
 makepattern
} def
/Pattern0 {<0000000000000000000000000000000000000000000000000000000000000000> PTRN} bind def
/Pattern1 {<ffffffffffffffffffffffffffffffffffffffffffffffffffffffffffffffff> PTRN} bind def
/Pattern2 {<eeeeffffbbbbffffeeeeffffbbbbffffeeeeffffbbbbffffeeeeffffbbbbffff> PTRN} bind def
/Pattern3 {<eeeebbbbeeeebbbbeeeebbbbeeeebbbbeeeebbbbeeeebbbbeeeebbbbeeeebbbb> PTRN} bind def
/Pattern4 {<5555aaaa5555aaaa5555aaaa5555aaaa5555aaaa5555aaaa5555aaaa5555aaaa> PTRN} bind def
/Pattern5 {<1111444411114444111144441111444411114444111144441111444411114444> PTRN} bind def
/Pattern6 {<1111000044440000111100004444000011110000444400001111000044440000> PTRN} bind def
/Pattern7 {<1010000000000000010100000000000010100000000000000101000000000000> PTRN} bind def
/Pattern8 {<0000000000000000000000000000000000000000000000000000000000000000> PTRN} bind def
/Pattern9 {<1e1e0f0f8787c3c3e1e1f0f078783c3c1e1e0f0f8787c3c3e1e1f0f078783c3c> PTRN} bind def
/Pattern10 {<7878f0f0e1e1c3c387870f0f1e1e3c3c7878f0f0e1e1c3c387870f0f1e1e3c3c> PTRN} bind def
/Pattern11 {<3333333333333333333333333333333333333333333333333333333333333333> PTRN} bind def
/Pattern12 {<ffffffff00000000ffffffff00000000ffffffff00000000ffffffff00000000> PTRN} bind def
/Pattern13 {<8181424224241818181824244242818181814242242418181818242442428181> PTRN} bind def
/Pattern14 {<8080404020201010080804040202010180804040202010100808040402020101> PTRN} bind def
/Pattern15 {<0101020204040808101020204040808001010202040408081010202040408080> PTRN} bind def
/Pattern16 {<2222222222222222222222222222222222222222222222222222222222222222> PTRN} bind def
/Pattern17 {<0000ffff000000000000ffff000000000000ffff000000000000ffff00000000> PTRN} bind def
/Pattern18 {<2222ffff222222222222ffff222222222222ffff222222222222ffff22222222> PTRN} bind def
/Pattern19 {<ffffffff33333333ffffffff33333333ffffffff33333333ffffffff33333333> PTRN} bind def
/Pattern20 {<0f0f0f0f0f0f0f0ff0f0f0f0f0f0f0f00f0f0f0f0f0f0f0ff0f0f0f0f0f0f0f0> PTRN} bind def
/Pattern21 {<ff00ff00ff00ff00ff00ff00ff00ff0000ff00ff00ff00ff00ff00ff00ff00ff> PTRN} bind def
/Pattern22 {<8001800180018001800180018001ffffffff8001800180018001800180018001> PTRN} bind def
/Pattern23 {<c003c003c003c003c003c003ffffffffffffffffc003c003c003c003c003c003> PTRN} bind def
/Pattern24 {<040404040404ffff404040404040ffff040404040404ffff404040404040ffff> PTRN} bind def
/Pattern25 {<180018001800180018001800ffffffff001800180018001800180018ffffffff> PTRN} bind def
/Pattern26 {<1111b8b87c7c3a3a1111a3a3c7c78b8b1111b8b87c7c3a3a1111a3a3c7c78b8b> PTRN} bind def
/Pattern27 {<101010102828c7c70101010182827c7c101010102828c7c70101010182827c7c> PTRN} bind def
/Pattern28 {<1c1c121211112121c1c12121111112121c1c121211112121c1c1212111111212> PTRN} bind def
/Pattern29 {<3e3e414180808080e3e31414080808083e3e414180808080e3e3141408080808> PTRN} bind def
/Pattern30 {<4848888884848383848488884848383848488888848483838484888848483838> PTRN} bind def
/Pattern31 {<03030404080808080c0c12122121c0c003030404080808080c0c12122121c0c0> PTRN} bind def
/ellipsedict 8 dict def
ellipsedict /mtrx matrix put
/EARC {
 ellipsedict begin
  /endangle exch def
  /startangle exch def
  /yrad exch def
  /xrad exch def
  /y exch def
  /x exch def
  /savematrix mtrx currentmatrix def
  x y translate
  xrad yrad scale
  0 0 1 startangle endangle arc
  savematrix setmatrix
 end
} def
/TL {
  /kcomp exch def
  /linewidth exch def
  /offset exch def
  GS
  0 offset rmoveto
  linewidth SLW
  dup stringwidth exch kcomp add exch RL s
  GR
} def
/KINIT
{
 /kvector exch def
 /kid 0 def
} def
/KPROC
{
 pop pop
 kvector kid get
 0 rmoveto
 /kid 1 kid add def
} def
/DefEncoding [
 /.notdef
 /.notdef
 /.notdef
 /.notdef
 /.notdef
 /.notdef
 /.notdef
 /.notdef
 /.notdef
 /.notdef
 /.notdef
 /.notdef
 /.notdef
 /.notdef
 /.notdef
 /.notdef
 /.notdef
 /.notdef
 /.notdef
 /.notdef
 /.notdef
 /.notdef
 /.notdef
 /.notdef
 /.notdef
 /.notdef
 /.notdef
 /.notdef
 /.notdef
 /.notdef
 /.notdef
 /.notdef
 /space
 /exclam
 /quotedbl
 /numbersign
 /dollar
 /percent
 /ampersand
 /quoteright
 /parenleft
 /parenright
 /asterisk
 /plus
 /comma
 /hyphen
 /period
 /slash
 /zero
 /one
 /two
 /three
 /four
 /five
 /six
 /seven
 /eight
 /nine
 /colon
 /semicolon
 /less
 /equal
 /greater
 /question
 /at
 /A
 /B
 /C
 /D
 /E
 /F
 /G
 /H
 /I
 /J
 /K
 /L
 /M
 /N
 /O
 /P
 /Q
 /R
 /S
 /T
 /U
 /V
 /W
 /X
 /Y
 /Z
 /bracketleft
 /backslash
 /bracketright
 /asciicircum
 /underscore
 /grave
 /a
 /b
 /c
 /d
 /e
 /f
 /g
 /h
 /i
 /j
 /k
 /l
 /m
 /n
 /o
 /p
 /q
 /r
 /s
 /t
 /u
 /v
 /w
 /x
 /y
 /z
 /braceleft
 /bar
 /braceright
 /asciitilde
 /.notdef
 /.notdef
 /.notdef
 /.notdef
 /.notdef
 /.notdef
 /.notdef
 /.notdef
 /.notdef
 /.notdef
 /.notdef
 /.notdef
 /.notdef
 /.notdef
 /.notdef
 /.notdef
 /.notdef
 /.notdef
 /.notdef
 /.notdef
 /.notdef
 /.notdef
 /.notdef
 /.notdef
 /.notdef
 /.notdef
 /.notdef
 /.notdef
 /.notdef
 /.notdef
 /.notdef
 /.notdef
 /.notdef
 /space
 /exclamdown
 /cent
 /sterling
 /currency
 /yen
 /brokenbar
 /section
 /dieresis
 /copyright
 /ordfeminine
 /guillemotleft
 /logicalnot
 /hyphen
 /registered
 /macron
 /degree
 /plusminus
 /twosuperior
 /threesuperior
 /acute
 /mu
 /paragraph
 /periodcentered
 /cedilla
 /onesuperior
 /ordmasculine
 /guillemotright
 /onequarter
 /onehalf
 /threequarters
 /questiondown
 /Agrave
 /Aacute
 /Acircumflex
 /Atilde
 /Adieresis
 /Aring
 /AE
 /Ccedilla
 /Egrave
 /Eacute
 /Ecircumflex
 /Edieresis
 /Igrave
 /Iacute
 /Icircumflex
 /Idieresis
 /Eth
 /Ntilde
 /Ograve
 /Oacute
 /Ocircumflex
 /Otilde
 /Odieresis
 /multiply
 /Oslash
 /Ugrave
 /Uacute
 /Ucircumflex
 /Udieresis
 /Yacute
 /Thorn
 /germandbls
 /agrave
 /aacute
 /acircumflex
 /atilde
 /adieresis
 /aring
 /ae
 /ccedilla
 /egrave
 /eacute
 /ecircumflex
 /edieresis
 /igrave
 /iacute
 /icircumflex
 /idieresis
 /eth
 /ntilde
 /ograve
 /oacute
 /ocircumflex
 /otilde
 /odieresis
 /divide
 /oslash
 /ugrave
 /uacute
 /ucircumflex
 /udieresis
 /yacute
 /thorn
 /ydieresis
] def
%%EndProlog
%%BeginSetup
%%EndSetup
612.00 612.00 scale
n
0.0000 0.0000 m
0.0000 1.0000 l
1.2941 1.0000 l
1.2941 0.0000 l
c
[/DeviceRGB] SCS
Color0 SC
fill
[/DeviceRGB] SCS
Color1 SC
[] 0 SD
0.0045 SLW
0 SLC
0 SLJ
n
0.1500 0.1500 m
0.1507 0.1516 l
0.1514 0.1531 l
0.1521 0.1547 l
0.1528 0.1562 l
0.1535 0.1577 l
0.1542 0.1593 l
0.1549 0.1608 l
0.1556 0.1624 l
0.1564 0.1639 l
0.1571 0.1654 l
0.1578 0.1670 l
0.1585 0.1685 l
0.1592 0.1700 l
0.1599 0.1715 l
0.1606 0.1731 l
0.1613 0.1746 l
0.1620 0.1761 l
0.1627 0.1776 l
0.1634 0.1791 l
0.1641 0.1806 l
0.1648 0.1821 l
0.1655 0.1836 l
0.1662 0.1851 l
0.1669 0.1866 l
0.1676 0.1881 l
0.1683 0.1896 l
0.1690 0.1911 l
0.1697 0.1926 l
0.1704 0.1941 l
0.1711 0.1956 l
0.1718 0.1970 l
0.1725 0.1985 l
0.1732 0.2000 l
0.1739 0.2015 l
0.1746 0.2029 l
0.1753 0.2044 l
0.1760 0.2059 l
0.1767 0.2073 l
0.1774 0.2088 l
0.1781 0.2103 l
0.1788 0.2117 l
0.1795 0.2132 l
0.1801 0.2146 l
0.1808 0.2161 l
0.1815 0.2175 l
0.1822 0.2190 l
0.1829 0.2204 l
0.1836 0.2219 l
0.1843 0.2233 l
0.1850 0.2247 l
0.1857 0.2262 l
0.1864 0.2276 l
0.1871 0.2290 l
0.1878 0.2304 l
0.1885 0.2319 l
0.1892 0.2333 l
0.1899 0.2347 l
0.1905 0.2361 l
0.1912 0.2375 l
0.1919 0.2389 l
0.1926 0.2404 l
0.1933 0.2418 l
0.1940 0.2432 l
0.1947 0.2446 l
0.1954 0.2460 l
0.1961 0.2474 l
0.1967 0.2488 l
0.1974 0.2502 l
0.1981 0.2515 l
0.1988 0.2529 l
0.1995 0.2543 l
0.2002 0.2557 l
0.2009 0.2571 l
0.2016 0.2585 l
0.2022 0.2598 l
0.2029 0.2612 l
0.2036 0.2626 l
0.2043 0.2640 l
0.2050 0.2653 l
0.2057 0.2667 l
0.2064 0.2681 l
0.2070 0.2694 l
0.2077 0.2708 l
0.2084 0.2721 l
0.2091 0.2735 l
0.2098 0.2748 l
0.2105 0.2762 l
0.2111 0.2775 l
0.2118 0.2789 l
0.2125 0.2802 l
0.2132 0.2815 l
0.2139 0.2829 l
0.2146 0.2842 l
0.2152 0.2856 l
0.2159 0.2869 l
0.2166 0.2882 l
0.2173 0.2895 l
0.2180 0.2909 l
0.2186 0.2922 l
0.2193 0.2935 l
0.2200 0.2948 l
0.2207 0.2961 l
0.2214 0.2974 l
0.2220 0.2987 l
0.2227 0.3001 l
0.2234 0.3014 l
0.2241 0.3027 l
0.2247 0.3040 l
0.2254 0.3053 l
0.2261 0.3066 l
0.2268 0.3079 l
0.2275 0.3091 l
0.2281 0.3104 l
0.2288 0.3117 l
0.2295 0.3130 l
0.2302 0.3143 l
0.2308 0.3156 l
0.2315 0.3168 l
0.2322 0.3181 l
0.2329 0.3194 l
0.2335 0.3207 l
0.2342 0.3219 l
0.2349 0.3232 l
0.2355 0.3245 l
0.2362 0.3257 l
0.2369 0.3270 l
0.2376 0.3282 l
0.2382 0.3295 l
0.2389 0.3307 l
0.2396 0.3320 l
0.2403 0.3332 l
0.2409 0.3345 l
0.2416 0.3357 l
0.2423 0.3370 l
0.2429 0.3382 l
0.2436 0.3394 l
0.2443 0.3407 l
0.2449 0.3419 l
0.2456 0.3431 l
0.2463 0.3444 l
0.2470 0.3456 l
0.2476 0.3468 l
0.2483 0.3480 l
0.2490 0.3493 l
0.2496 0.3505 l
0.2503 0.3517 l
0.2510 0.3529 l
0.2516 0.3541 l
0.2523 0.3553 l
0.2530 0.3565 l
0.2536 0.3577 l
0.2543 0.3589 l
0.2550 0.3601 l
0.2556 0.3613 l
0.2563 0.3625 l
0.2570 0.3637 l
0.2576 0.3649 l
0.2583 0.3661 l
0.2590 0.3673 l
0.2596 0.3685 l
0.2603 0.3696 l
0.2609 0.3708 l
0.2616 0.3720 l
0.2623 0.3732 l
0.2629 0.3743 l
0.2636 0.3755 l
0.2643 0.3767 l
0.2649 0.3778 l
0.2656 0.3790 l
0.2662 0.3802 l
0.2669 0.3813 l
0.2676 0.3825 l
0.2682 0.3836 l
0.2689 0.3848 l
0.2696 0.3859 l
0.2702 0.3871 l
0.2709 0.3882 l
0.2715 0.3894 l
0.2722 0.3905 l
0.2729 0.3917 l
0.2735 0.3928 l
0.2742 0.3939 l
0.2748 0.3951 l
0.2755 0.3962 l
0.2761 0.3973 l
0.2768 0.3984 l
0.2775 0.3996 l
0.2781 0.4007 l
0.2788 0.4018 l
0.2794 0.4029 l
0.2801 0.4040 l
0.2807 0.4052 l
0.2814 0.4063 l
0.2821 0.4074 l
0.2827 0.4085 l
0.2834 0.4096 l
0.2840 0.4107 l
0.2847 0.4118 l
0.2853 0.4129 l
0.2860 0.4140 l
0.2866 0.4151 l
0.2873 0.4162 l
0.2879 0.4173 l
0.2886 0.4183 l
0.2893 0.4194 l
0.2899 0.4205 l
0.2906 0.4216 l
0.2912 0.4227 l
0.2919 0.4238 l
0.2925 0.4248 l
0.2932 0.4259 l
0.2938 0.4270 l
0.2945 0.4280 l
0.2951 0.4291 l
0.2958 0.4302 l
0.2964 0.4312 l
0.2971 0.4323 l
0.2977 0.4333 l
0.2984 0.4344 l
0.2990 0.4355 l
0.2997 0.4365 l
0.3003 0.4376 l
0.3010 0.4386 l
0.3016 0.4396 l
0.3023 0.4407 l
0.3029 0.4417 l
0.3036 0.4428 l
0.3042 0.4438 l
0.3049 0.4448 l
0.3055 0.4459 l
0.3062 0.4469 l
0.3068 0.4479 l
0.3074 0.4489 l
0.3081 0.4500 l
0.3087 0.4510 l
0.3094 0.4520 l
0.3100 0.4530 l
0.3107 0.4540 l
0.3113 0.4551 l
0.3120 0.4561 l
0.3126 0.4571 l
0.3133 0.4581 l
0.3139 0.4591 l
0.3145 0.4601 l
0.3152 0.4611 l
0.3158 0.4621 l
0.3165 0.4631 l
0.3171 0.4641 l
0.3178 0.4651 l
0.3184 0.4661 l
0.3190 0.4670 l
0.3197 0.4680 l
0.3203 0.4690 l
0.3210 0.4700 l
0.3216 0.4710 l
0.3223 0.4719 l
0.3229 0.4729 l
0.3235 0.4739 l
0.3242 0.4749 l
0.3248 0.4758 l
0.3255 0.4768 l
0.3261 0.4778 l
0.3267 0.4787 l
0.3274 0.4797 l
0.3280 0.4806 l
0.3287 0.4816 l
0.3293 0.4825 l
0.3299 0.4835 l
0.3306 0.4844 l
0.3312 0.4854 l
0.3318 0.4863 l
0.3325 0.4873 l
0.3331 0.4882 l
0.3338 0.4892 l
0.3344 0.4901 l
0.3350 0.4910 l
0.3357 0.4920 l
0.3363 0.4929 l
0.3369 0.4938 l
0.3376 0.4948 l
0.3382 0.4957 l
0.3388 0.4966 l
0.3395 0.4975 l
0.3401 0.4984 l
0.3407 0.4994 l
0.3414 0.5003 l
0.3420 0.5012 l
0.3427 0.5021 l
0.3433 0.5030 l
0.3439 0.5039 l
0.3446 0.5048 l
0.3452 0.5057 l
0.3458 0.5066 l
0.3465 0.5075 l
0.3471 0.5084 l
0.3477 0.5093 l
0.3483 0.5102 l
0.3490 0.5111 l
0.3496 0.5120 l
0.3502 0.5129 l
0.3509 0.5137 l
0.3515 0.5146 l
0.3521 0.5155 l
0.3528 0.5164 l
0.3534 0.5173 l
0.3540 0.5181 l
0.3547 0.5190 l
0.3553 0.5199 l
0.3559 0.5207 l
0.3565 0.5216 l
0.3572 0.5225 l
0.3578 0.5233 l
0.3584 0.5242 l
0.3591 0.5250 l
0.3597 0.5259 l
0.3603 0.5268 l
0.3609 0.5276 l
0.3616 0.5285 l
0.3622 0.5293 l
0.3628 0.5301 l
0.3635 0.5310 l
0.3641 0.5318 l
0.3647 0.5327 l
0.3653 0.5335 l
0.3660 0.5343 l
0.3666 0.5352 l
0.3672 0.5360 l
0.3678 0.5368 l
0.3685 0.5377 l
0.3691 0.5385 l
0.3697 0.5393 l
0.3703 0.5401 l
0.3710 0.5409 l
0.3716 0.5418 l
0.3722 0.5426 l
0.3728 0.5434 l
0.3735 0.5442 l
0.3741 0.5450 l
0.3747 0.5458 l
0.3753 0.5466 l
0.3759 0.5474 l
0.3766 0.5482 l
0.3772 0.5490 l
0.3778 0.5498 l
0.3784 0.5506 l
0.3791 0.5514 l
0.3797 0.5522 l
0.3803 0.5530 l
0.3809 0.5538 l
0.3815 0.5546 l
0.3822 0.5553 l
0.3828 0.5561 l
0.3834 0.5569 l
0.3840 0.5577 l
0.3846 0.5585 l
0.3853 0.5592 l
0.3859 0.5600 l
0.3865 0.5608 l
0.3871 0.5615 l
0.3877 0.5623 l
0.3883 0.5631 l
0.3890 0.5638 l
0.3896 0.5646 l
0.3902 0.5653 l
0.3908 0.5661 l
0.3914 0.5668 l
0.3921 0.5676 l
0.3927 0.5683 l
0.3933 0.5691 l
0.3939 0.5698 l
0.3945 0.5706 l
0.3951 0.5713 l
0.3958 0.5721 l
0.3964 0.5728 l
0.3970 0.5735 l
0.3976 0.5743 l
0.3982 0.5750 l
0.3988 0.5757 l
0.3994 0.5764 l
0.4001 0.5772 l
0.4007 0.5779 l
0.4013 0.5786 l
0.4019 0.5793 l
0.4025 0.5801 l
0.4031 0.5808 l
0.4037 0.5815 l
0.4044 0.5822 l
0.4050 0.5829 l
0.4056 0.5836 l
0.4062 0.5843 l
0.4068 0.5850 l
0.4074 0.5857 l
0.4080 0.5864 l
0.4086 0.5871 l
0.4092 0.5878 l
0.4099 0.5885 l
0.4105 0.5892 l
0.4111 0.5899 l
0.4117 0.5906 l
0.4123 0.5913 l
0.4129 0.5919 l
0.4135 0.5926 l
0.4141 0.5933 l
0.4147 0.5940 l
0.4154 0.5947 l
0.4160 0.5953 l
0.4166 0.5960 l
0.4172 0.5967 l
0.4178 0.5974 l
0.4184 0.5980 l
0.4190 0.5987 l
0.4196 0.5993 l
0.4202 0.6000 l
0.4208 0.6007 l
0.4214 0.6013 l
0.4220 0.6020 l
0.4226 0.6026 l
0.4233 0.6033 l
0.4239 0.6039 l
0.4245 0.6046 l
0.4251 0.6052 l
0.4257 0.6059 l
0.4263 0.6065 l
0.4269 0.6071 l
0.4275 0.6078 l
0.4281 0.6084 l
0.4287 0.6090 l
0.4293 0.6097 l
0.4299 0.6103 l
0.4305 0.6109 l
0.4311 0.6116 l
0.4317 0.6122 l
0.4323 0.6128 l
0.4329 0.6134 l
0.4335 0.6140 l
0.4341 0.6147 l
0.4347 0.6153 l
0.4354 0.6159 l
0.4360 0.6165 l
0.4366 0.6171 l
0.4372 0.6177 l
0.4378 0.6183 l
0.4384 0.6189 l
0.4390 0.6195 l
0.4396 0.6201 l
0.4402 0.6207 l
0.4408 0.6213 l
0.4414 0.6219 l
0.4420 0.6225 l
0.4426 0.6231 l
0.4432 0.6237 l
0.4438 0.6243 l
0.4444 0.6248 l
0.4450 0.6254 l
0.4456 0.6260 l
0.4462 0.6266 l
0.4468 0.6272 l
0.4474 0.6277 l
0.4480 0.6283 l
0.4486 0.6289 l
0.4492 0.6294 l
0.4498 0.6300 l
0.4504 0.6306 l
0.4510 0.6311 l
0.4516 0.6317 l
0.4522 0.6323 l
0.4527 0.6328 l
0.4533 0.6334 l
0.4539 0.6339 l
0.4545 0.6345 l
0.4551 0.6350 l
0.4557 0.6356 l
0.4563 0.6361 l
0.4569 0.6367 l
0.4575 0.6372 l
0.4581 0.6377 l
0.4587 0.6383 l
0.4593 0.6388 l
0.4599 0.6394 l
0.4605 0.6399 l
0.4611 0.6404 l
0.4617 0.6409 l
0.4623 0.6415 l
0.4629 0.6420 l
0.4635 0.6425 l
0.4641 0.6430 l
0.4647 0.6436 l
0.4652 0.6441 l
0.4658 0.6446 l
0.4664 0.6451 l
0.4670 0.6456 l
0.4676 0.6461 l
0.4682 0.6466 l
0.4688 0.6471 l
0.4694 0.6476 l
0.4700 0.6481 l
0.4706 0.6486 l
0.4712 0.6491 l
0.4718 0.6496 l
0.4724 0.6501 l
0.4729 0.6506 l
0.4735 0.6511 l
0.4741 0.6516 l
0.4747 0.6521 l
0.4753 0.6526 l
0.4759 0.6531 l
0.4765 0.6535 l
0.4771 0.6540 l
0.4777 0.6545 l
0.4783 0.6550 l
0.4788 0.6555 l
0.4794 0.6559 l
0.4800 0.6564 l
0.4806 0.6569 l
0.4812 0.6573 l
0.4818 0.6578 l
0.4824 0.6583 l
0.4830 0.6587 l
0.4836 0.6592 l
0.4841 0.6596 l
0.4847 0.6601 l
0.4853 0.6605 l
0.4859 0.6610 l
0.4865 0.6615 l
0.4871 0.6619 l
0.4877 0.6623 l
0.4882 0.6628 l
0.4888 0.6632 l
0.4894 0.6637 l
0.4900 0.6641 l
0.4906 0.6645 l
0.4912 0.6650 l
0.4918 0.6654 l
0.4923 0.6658 l
0.4929 0.6663 l
0.4935 0.6667 l
0.4941 0.6671 l
0.4947 0.6676 l
0.4953 0.6680 l
0.4959 0.6684 l
0.4964 0.6688 l
0.4970 0.6692 l
0.4976 0.6696 l
0.4982 0.6701 l
0.4988 0.6705 l
0.4994 0.6709 l
0.4999 0.6713 l
0.5005 0.6717 l
0.5011 0.6721 l
0.5017 0.6725 l
0.5023 0.6729 l
0.5028 0.6733 l
0.5034 0.6737 l
0.5040 0.6741 l
0.5046 0.6745 l
0.5052 0.6749 l
0.5058 0.6753 l
0.5063 0.6756 l
0.5069 0.6760 l
0.5075 0.6764 l
0.5081 0.6768 l
0.5087 0.6772 l
0.5092 0.6776 l
0.5098 0.6779 l
0.5104 0.6783 l
0.5110 0.6787 l
0.5115 0.6791 l
0.5121 0.6794 l
0.5127 0.6798 l
0.5133 0.6802 l
0.5139 0.6805 l
0.5144 0.6809 l
0.5150 0.6812 l
0.5156 0.6816 l
0.5162 0.6820 l
0.5168 0.6823 l
0.5173 0.6827 l
0.5179 0.6830 l
0.5185 0.6834 l
0.5191 0.6837 l
0.5196 0.6841 l
0.5202 0.6844 l
0.5208 0.6847 l
0.5214 0.6851 l
0.5219 0.6854 l
0.5225 0.6858 l
0.5231 0.6861 l
0.5237 0.6864 l
0.5242 0.6867 l
0.5248 0.6871 l
0.5254 0.6874 l
0.5260 0.6877 l
0.5265 0.6881 l
0.5271 0.6884 l
0.5277 0.6887 l
0.5283 0.6890 l
0.5288 0.6893 l
0.5294 0.6896 l
0.5300 0.6900 l
0.5306 0.6903 l
0.5311 0.6906 l
0.5317 0.6909 l
0.5323 0.6912 l
0.5329 0.6915 l
0.5334 0.6918 l
0.5340 0.6921 l
0.5346 0.6924 l
0.5351 0.6927 l
0.5357 0.6930 l
0.5363 0.6933 l
0.5369 0.6936 l
0.5374 0.6939 l
0.5380 0.6941 l
0.5386 0.6944 l
0.5391 0.6947 l
0.5397 0.6950 l
0.5403 0.6953 l
0.5409 0.6956 l
0.5414 0.6958 l
0.5420 0.6961 l
0.5426 0.6964 l
0.5431 0.6966 l
0.5437 0.6969 l
0.5443 0.6972 l
0.5448 0.6974 l
0.5454 0.6977 l
0.5460 0.6980 l
0.5466 0.6982 l
0.5471 0.6985 l
0.5477 0.6988 l
0.5483 0.6990 l
0.5488 0.6993 l
0.5494 0.6995 l
0.5500 0.6998 l
0.5505 0.7000 l
0.5511 0.7003 l
0.5517 0.7005 l
0.5522 0.7007 l
0.5528 0.7010 l
0.5534 0.7012 l
0.5539 0.7015 l
0.5545 0.7017 l
0.5551 0.7019 l
0.5556 0.7022 l
0.5562 0.7024 l
0.5568 0.7026 l
0.5573 0.7028 l
0.5579 0.7031 l
0.5585 0.7033 l
0.5590 0.7035 l
0.5596 0.7037 l
0.5602 0.7039 l
0.5607 0.7042 l
0.5613 0.7044 l
0.5618 0.7046 l
0.5624 0.7048 l
0.5630 0.7050 l
0.5635 0.7052 l
0.5641 0.7054 l
0.5647 0.7056 l
0.5652 0.7058 l
0.5658 0.7060 l
0.5664 0.7062 l
0.5669 0.7064 l
0.5675 0.7066 l
0.5680 0.7068 l
0.5686 0.7070 l
0.5692 0.7072 l
0.5697 0.7074 l
0.5703 0.7076 l
0.5709 0.7077 l
0.5714 0.7079 l
0.5720 0.7081 l
0.5725 0.7083 l
0.5731 0.7085 l
0.5737 0.7086 l
0.5742 0.7088 l
0.5748 0.7090 l
0.5753 0.7092 l
0.5759 0.7093 l
0.5765 0.7095 l
0.5770 0.7097 l
0.5776 0.7098 l
0.5781 0.7100 l
0.5787 0.7101 l
0.5793 0.7103 l
0.5798 0.7104 l
0.5804 0.7106 l
0.5809 0.7108 l
0.5815 0.7109 l
0.5821 0.7110 l
0.5826 0.7112 l
0.5832 0.7113 l
0.5837 0.7115 l
0.5843 0.7116 l
0.5848 0.7118 l
0.5854 0.7119 l
0.5860 0.7120 l
0.5865 0.7122 l
0.5871 0.7123 l
0.5876 0.7124 l
0.5882 0.7126 l
0.5887 0.7127 l
0.5893 0.7128 l
0.5899 0.7129 l
0.5904 0.7131 l
0.5910 0.7132 l
0.5915 0.7133 l
0.5921 0.7134 l
0.5926 0.7135 l
0.5932 0.7137 l
0.5937 0.7138 l
0.5943 0.7139 l
0.5949 0.7140 l
0.5954 0.7141 l
0.5960 0.7142 l
0.5965 0.7143 l
0.5971 0.7144 l
0.5976 0.7145 l
0.5982 0.7146 l
0.5987 0.7147 l
0.5993 0.7148 l
0.5998 0.7149 l
0.6004 0.7150 l
0.6009 0.7151 l
0.6015 0.7152 l
0.6021 0.7152 l
0.6026 0.7153 l
0.6032 0.7154 l
0.6037 0.7155 l
0.6043 0.7156 l
0.6048 0.7156 l
0.6054 0.7157 l
0.6059 0.7158 l
0.6065 0.7159 l
0.6070 0.7159 l
0.6076 0.7160 l
0.6081 0.7161 l
0.6087 0.7161 l
0.6092 0.7162 l
0.6098 0.7163 l
0.6103 0.7163 l
0.6109 0.7164 l
0.6114 0.7164 l
0.6120 0.7165 l
0.6125 0.7165 l
0.6131 0.7166 l
0.6136 0.7166 l
0.6142 0.7167 l
0.6147 0.7167 l
0.6153 0.7168 l
0.6158 0.7168 l
0.6164 0.7169 l
0.6169 0.7169 l
0.6175 0.7169 l
0.6180 0.7170 l
0.6186 0.7170 l
0.6191 0.7170 l
0.6197 0.7171 l
0.6202 0.7171 l
0.6208 0.7171 l
0.6213 0.7171 l
0.6219 0.7172 l
0.6224 0.7172 l
0.6229 0.7172 l
0.6235 0.7172 l
0.6240 0.7172 l
0.6246 0.7173 l
0.6251 0.7173 l
0.6257 0.7173 l
0.6262 0.7173 l
0.6268 0.7173 l
0.6273 0.7173 l
0.6279 0.7173 l
0.6284 0.7173 l
0.6290 0.7173 l
0.6295 0.7173 l
0.6300 0.7173 l
0.6306 0.7173 l
0.6311 0.7173 l
0.6317 0.7173 l
0.6322 0.7173 l
0.6328 0.7173 l
0.6333 0.7173 l
0.6339 0.7172 l
0.6344 0.7172 l
0.6349 0.7172 l
0.6355 0.7172 l
0.6360 0.7172 l
0.6366 0.7172 l
0.6371 0.7171 l
0.6377 0.7171 l
0.6382 0.7171 l
0.6387 0.7170 l
0.6393 0.7170 l
0.6398 0.7170 l
0.6404 0.7169 l
0.6409 0.7169 l
0.6415 0.7169 l
0.6420 0.7168 l
0.6425 0.7168 l
0.6431 0.7167 l
0.6436 0.7167 l
0.6442 0.7167 l
0.6447 0.7166 l
0.6452 0.7166 l
0.6458 0.7165 l
0.6463 0.7164 l
0.6469 0.7164 l
0.6474 0.7163 l
0.6480 0.7163 l
0.6485 0.7162 l
0.6490 0.7162 l
0.6496 0.7161 l
0.6501 0.7160 l
0.6506 0.7160 l
0.6512 0.7159 l
0.6517 0.7158 l
0.6523 0.7157 l
0.6528 0.7157 l
0.6533 0.7156 l
0.6539 0.7155 l
0.6544 0.7154 l
0.6550 0.7154 l
0.6555 0.7153 l
0.6560 0.7152 l
0.6566 0.7151 l
0.6571 0.7150 l
0.6577 0.7149 l
0.6582 0.7148 l
0.6587 0.7147 l
0.6593 0.7147 l
0.6598 0.7146 l
0.6603 0.7145 l
0.6609 0.7144 l
0.6614 0.7143 l
0.6619 0.7142 l
0.6625 0.7141 l
0.6630 0.7139 l
0.6636 0.7138 l
0.6641 0.7137 l
0.6646 0.7136 l
0.6652 0.7135 l
0.6657 0.7134 l
0.6662 0.7133 l
0.6668 0.7132 l
0.6673 0.7130 l
0.6678 0.7129 l
0.6684 0.7128 l
0.6689 0.7127 l
0.6694 0.7125 l
0.6700 0.7124 l
0.6705 0.7123 l
0.6710 0.7122 l
0.6716 0.7120 l
0.6721 0.7119 l
0.6726 0.7117 l
0.6732 0.7116 l
0.6737 0.7115 l
0.6742 0.7113 l
0.6748 0.7112 l
0.6753 0.7110 l
0.6758 0.7109 l
0.6764 0.7107 l
0.6769 0.7106 l
0.6774 0.7104 l
0.6780 0.7103 l
0.6785 0.7101 l
0.6790 0.7100 l
0.6796 0.7098 l
0.6801 0.7097 l
0.6806 0.7095 l
0.6812 0.7093 l
0.6817 0.7092 l
0.6822 0.7090 l
0.6828 0.7088 l
0.6833 0.7087 l
0.6838 0.7085 l
0.6844 0.7083 l
0.6849 0.7082 l
0.6854 0.7080 l
0.6859 0.7078 l
0.6865 0.7076 l
0.6870 0.7074 l
0.6875 0.7073 l
0.6881 0.7071 l
0.6886 0.7069 l
0.6891 0.7067 l
0.6897 0.7065 l
0.6902 0.7063 l
0.6907 0.7061 l
0.6912 0.7059 l
0.6918 0.7057 l
0.6923 0.7055 l
0.6928 0.7053 l
0.6934 0.7051 l
0.6939 0.7049 l
0.6944 0.7047 l
0.6949 0.7045 l
0.6955 0.7043 l
0.6960 0.7041 l
0.6965 0.7039 l
0.6970 0.7037 l
0.6976 0.7035 l
0.6981 0.7032 l
0.6986 0.7030 l
0.6992 0.7028 l
0.6997 0.7026 l
0.7002 0.7024 l
0.7007 0.7021 l
0.7013 0.7019 l
0.7018 0.7017 l
0.7023 0.7014 l
0.7028 0.7012 l
0.7034 0.7010 l
0.7039 0.7007 l
0.7044 0.7005 l
0.7049 0.7003 l
0.7055 0.7000 l
0.7060 0.6998 l
0.7065 0.6995 l
0.7070 0.6993 l
0.7076 0.6991 l
0.7081 0.6988 l
0.7086 0.6986 l
0.7091 0.6983 l
0.7097 0.6981 l
0.7102 0.6978 l
0.7107 0.6975 l
0.7112 0.6973 l
0.7118 0.6970 l
0.7123 0.6968 l
0.7128 0.6965 l
0.7133 0.6962 l
0.7138 0.6960 l
0.7144 0.6957 l
0.7149 0.6954 l
0.7154 0.6952 l
0.7159 0.6949 l
0.7165 0.6946 l
0.7170 0.6943 l
0.7175 0.6941 l
0.7180 0.6938 l
0.7185 0.6935 l
0.7191 0.6932 l
0.7196 0.6929 l
0.7201 0.6927 l
0.7206 0.6924 l
0.7212 0.6921 l
0.7217 0.6918 l
0.7222 0.6915 l
0.7227 0.6912 l
0.7232 0.6909 l
0.7238 0.6906 l
0.7243 0.6903 l
0.7248 0.6900 l
0.7253 0.6897 l
0.7258 0.6894 l
0.7264 0.6891 l
0.7269 0.6888 l
0.7274 0.6885 l
0.7279 0.6882 l
0.7284 0.6879 l
0.7290 0.6875 l
0.7295 0.6872 l
0.7300 0.6869 l
0.7305 0.6866 l
0.7310 0.6863 l
0.7315 0.6859 l
0.7321 0.6856 l
0.7326 0.6853 l
0.7331 0.6850 l
0.7336 0.6846 l
0.7341 0.6843 l
0.7347 0.6840 l
0.7352 0.6836 l
0.7357 0.6833 l
0.7362 0.6830 l
0.7367 0.6826 l
0.7372 0.6823 l
0.7378 0.6820 l
0.7383 0.6816 l
0.7388 0.6813 l
0.7393 0.6809 l
0.7398 0.6806 l
0.7403 0.6802 l
0.7409 0.6799 l
0.7414 0.6795 l
0.7419 0.6792 l
0.7424 0.6788 l
0.7429 0.6784 l
0.7434 0.6781 l
0.7440 0.6777 l
0.7445 0.6774 l
0.7450 0.6770 l
0.7455 0.6766 l
0.7460 0.6763 l
0.7465 0.6759 l
0.7470 0.6755 l
0.7476 0.6752 l
0.7481 0.6748 l
0.7486 0.6744 l
0.7491 0.6740 l
0.7496 0.6736 l
0.7501 0.6733 l
0.7506 0.6729 l
0.7512 0.6725 l
0.7517 0.6721 l
0.7522 0.6717 l
0.7527 0.6713 l
0.7532 0.6710 l
0.7537 0.6706 l
0.7542 0.6702 l
0.7547 0.6698 l
0.7553 0.6694 l
0.7558 0.6690 l
0.7563 0.6686 l
0.7568 0.6682 l
0.7573 0.6678 l
0.7578 0.6674 l
0.7583 0.6670 l
0.7588 0.6665 l
0.7594 0.6661 l
0.7599 0.6657 l
0.7604 0.6653 l
0.7609 0.6649 l
0.7614 0.6645 l
0.7619 0.6641 l
0.7624 0.6636 l
0.7629 0.6632 l
0.7634 0.6628 l
0.7639 0.6624 l
0.7645 0.6620 l
0.7650 0.6615 l
0.7655 0.6611 l
0.7660 0.6607 l
0.7665 0.6602 l
0.7670 0.6598 l
0.7675 0.6594 l
0.7680 0.6589 l
0.7685 0.6585 l
0.7690 0.6580 l
0.7696 0.6576 l
0.7701 0.6572 l
0.7706 0.6567 l
0.7711 0.6563 l
0.7716 0.6558 l
0.7721 0.6554 l
0.7726 0.6549 l
0.7731 0.6545 l
0.7736 0.6540 l
0.7741 0.6536 l
0.7746 0.6531 l
0.7751 0.6526 l
0.7756 0.6522 l
0.7762 0.6517 l
0.7767 0.6512 l
0.7772 0.6508 l
0.7777 0.6503 l
0.7782 0.6498 l
0.7787 0.6494 l
0.7792 0.6489 l
0.7797 0.6484 l
0.7802 0.6480 l
0.7807 0.6475 l
0.7812 0.6470 l
0.7817 0.6465 l
0.7822 0.6460 l
0.7827 0.6455 l
0.7832 0.6451 l
0.7838 0.6446 l
0.7843 0.6441 l
0.7848 0.6436 l
0.7853 0.6431 l
0.7858 0.6426 l
0.7863 0.6421 l
0.7868 0.6416 l
0.7873 0.6411 l
0.7878 0.6406 l
0.7883 0.6401 l
0.7888 0.6396 l
0.7893 0.6391 l
0.7898 0.6386 l
0.7903 0.6381 l
0.7908 0.6376 l
0.7913 0.6371 l
0.7918 0.6366 l
0.7923 0.6361 l
0.7928 0.6355 l
0.7933 0.6350 l
0.7938 0.6345 l
0.7943 0.6340 l
0.7948 0.6335 l
0.7953 0.6329 l
0.7958 0.6324 l
0.7963 0.6319 l
0.7968 0.6314 l
0.7974 0.6308 l
0.7979 0.6303 l
0.7984 0.6298 l
0.7989 0.6292 l
0.7994 0.6287 l
0.7999 0.6281 l
0.8004 0.6276 l
0.8009 0.6271 l
0.8014 0.6265 l
0.8019 0.6260 l
0.8024 0.6254 l
0.8029 0.6249 l
0.8034 0.6243 l
0.8039 0.6238 l
0.8044 0.6232 l
0.8049 0.6227 l
0.8054 0.6221 l
0.8059 0.6216 l
0.8064 0.6210 l
0.8069 0.6204 l
0.8074 0.6199 l
0.8079 0.6193 l
0.8084 0.6188 l
0.8089 0.6182 l
0.8094 0.6176 l
0.8099 0.6171 l
0.8104 0.6165 l
0.8109 0.6159 l
0.8114 0.6153 l
0.8119 0.6148 l
0.8124 0.6142 l
0.8129 0.6136 l
0.8134 0.6130 l
0.8139 0.6124 l
0.8143 0.6119 l
0.8148 0.6113 l
0.8153 0.6107 l
0.8158 0.6101 l
0.8163 0.6095 l
0.8168 0.6089 l
0.8173 0.6083 l
0.8178 0.6077 l
0.8183 0.6071 l
0.8188 0.6065 l
0.8193 0.6059 l
0.8198 0.6053 l
0.8203 0.6047 l
0.8208 0.6041 l
0.8213 0.6035 l
0.8218 0.6029 l
0.8223 0.6023 l
0.8228 0.6017 l
0.8233 0.6011 l
0.8238 0.6005 l
0.8243 0.5998 l
0.8248 0.5992 l
0.8253 0.5986 l
0.8258 0.5980 l
0.8263 0.5974 l
0.8268 0.5967 l
0.8273 0.5961 l
0.8277 0.5955 l
0.8282 0.5949 l
0.8287 0.5942 l
0.8292 0.5936 l
0.8297 0.5930 l
0.8302 0.5923 l
0.8307 0.5917 l
0.8312 0.5911 l
0.8317 0.5904 l
0.8322 0.5898 l
0.8327 0.5891 l
0.8332 0.5885 l
0.8337 0.5878 l
0.8342 0.5872 l
0.8347 0.5866 l
0.8352 0.5859 l
0.8357 0.5852 l
0.8361 0.5846 l
0.8366 0.5839 l
0.8371 0.5833 l
0.8376 0.5826 l
0.8381 0.5820 l
0.8386 0.5813 l
0.8391 0.5806 l
0.8396 0.5800 l
0.8401 0.5793 l
0.8406 0.5786 l
0.8411 0.5780 l
0.8416 0.5773 l
0.8420 0.5766 l
0.8425 0.5760 l
0.8430 0.5753 l
0.8435 0.5746 l
0.8440 0.5739 l
0.8445 0.5732 l
0.8450 0.5726 l
0.8455 0.5719 l
0.8460 0.5712 l
0.8465 0.5705 l
0.8470 0.5698 l
0.8474 0.5691 l
0.8479 0.5684 l
0.8484 0.5678 l
0.8489 0.5671 l
0.8494 0.5664 l
0.8499 0.5657 l
0.8504 0.5650 l
0.8509 0.5643 l
0.8514 0.5636 l
0.8518 0.5629 l
0.8523 0.5622 l
0.8528 0.5615 l
0.8533 0.5607 l
0.8538 0.5600 l
0.8543 0.5593 l
0.8548 0.5586 l
0.8553 0.5579 l
0.8558 0.5572 l
0.8562 0.5565 l
0.8567 0.5557 l
0.8572 0.5550 l
0.8577 0.5543 l
0.8582 0.5536 l
0.8587 0.5529 l
0.8592 0.5521 l
0.8597 0.5514 l
0.8601 0.5507 l
0.8606 0.5499 l
0.8611 0.5492 l
0.8616 0.5485 l
0.8621 0.5477 l
0.8626 0.5470 l
0.8631 0.5463 l
0.8636 0.5455 l
0.8640 0.5448 l
0.8645 0.5440 l
0.8650 0.5433 l
0.8655 0.5425 l
0.8660 0.5418 l
0.8665 0.5410 l
0.8670 0.5403 l
0.8674 0.5395 l
0.8679 0.5388 l
0.8684 0.5380 l
0.8689 0.5373 l
0.8694 0.5365 l
0.8699 0.5358 l
0.8703 0.5350 l
0.8708 0.5342 l
0.8713 0.5335 l
0.8718 0.5327 l
0.8723 0.5319 l
0.8728 0.5312 l
0.8733 0.5304 l
0.8737 0.5296 l
0.8742 0.5288 l
0.8747 0.5281 l
0.8752 0.5273 l
0.8757 0.5265 l
0.8762 0.5257 l
0.8766 0.5249 l
0.8771 0.5242 l
0.8776 0.5234 l
0.8781 0.5226 l
0.8786 0.5218 l
0.8791 0.5210 l
0.8795 0.5202 l
0.8800 0.5194 l
0.8805 0.5186 l
0.8810 0.5178 l
0.8815 0.5170 l
0.8819 0.5162 l
0.8824 0.5154 l
0.8829 0.5146 l
0.8834 0.5138 l
0.8839 0.5130 l
0.8844 0.5122 l
0.8848 0.5114 l
0.8853 0.5106 l
0.8858 0.5098 l
0.8863 0.5090 l
0.8868 0.5082 l
0.8872 0.5073 l
0.8877 0.5065 l
0.8882 0.5057 l
0.8887 0.5049 l
0.8892 0.5041 l
0.8896 0.5032 l
0.8901 0.5024 l
0.8906 0.5016 l
0.8911 0.5008 l
0.8916 0.4999 l
0.8920 0.4991 l
0.8925 0.4983 l
0.8930 0.4974 l
0.8935 0.4966 l
0.8940 0.4958 l
0.8944 0.4949 l
0.8949 0.4941 l
0.8954 0.4932 l
0.8959 0.4924 l
0.8963 0.4915 l
0.8968 0.4907 l
0.8973 0.4898 l
0.8978 0.4890 l
0.8983 0.4881 l
0.8987 0.4873 l
0.8992 0.4864 l
0.8997 0.4856 l
0.9002 0.4847 l
0.9007 0.4839 l
0.9011 0.4830 l
0.9016 0.4821 l
0.9021 0.4813 l
0.9026 0.4804 l
0.9030 0.4795 l
0.9035 0.4787 l
0.9040 0.4778 l
0.9045 0.4769 l
0.9049 0.4761 l
0.9054 0.4752 l
0.9059 0.4743 l
0.9064 0.4734 l
0.9068 0.4726 l
0.9073 0.4717 l
0.9078 0.4708 l
0.9083 0.4699 l
0.9088 0.4690 l
0.9092 0.4681 l
0.9097 0.4673 l
0.9102 0.4664 l
0.9107 0.4655 l
0.9111 0.4646 l
0.9116 0.4637 l
0.9121 0.4628 l
0.9126 0.4619 l
0.9130 0.4610 l
0.9135 0.4601 l
0.9140 0.4592 l
0.9145 0.4583 l
0.9149 0.4574 l
0.9154 0.4565 l
0.9159 0.4556 l
0.9163 0.4547 l
0.9168 0.4538 l
0.9173 0.4528 l
0.9178 0.4519 l
0.9182 0.4510 l
0.9187 0.4501 l
0.9192 0.4492 l
0.9197 0.4483 l
0.9201 0.4473 l
0.9206 0.4464 l
0.9211 0.4455 l
0.9216 0.4446 l
0.9220 0.4436 l
0.9225 0.4427 l
0.9230 0.4418 l
0.9234 0.4408 l
0.9239 0.4399 l
0.9244 0.4390 l
0.9249 0.4380 l
0.9253 0.4371 l
0.9258 0.4362 l
0.9263 0.4352 l
0.9267 0.4343 l
0.9272 0.4333 l
0.9277 0.4324 l
0.9282 0.4314 l
0.9286 0.4305 l
0.9291 0.4295 l
0.9296 0.4286 l
0.9300 0.4276 l
0.9305 0.4267 l
0.9310 0.4257 l
0.9315 0.4248 l
0.9319 0.4238 l
0.9324 0.4228 l
0.9329 0.4219 l
0.9333 0.4209 l
0.9338 0.4200 l
0.9343 0.4190 l
0.9347 0.4180 l
0.9352 0.4171 l
0.9357 0.4161 l
0.9362 0.4151 l
0.9366 0.4141 l
0.9371 0.4132 l
0.9376 0.4122 l
0.9380 0.4112 l
0.9385 0.4102 l
0.9390 0.4092 l
0.9394 0.4083 l
0.9399 0.4073 l
0.9404 0.4063 l
0.9408 0.4053 l
0.9413 0.4043 l
0.9418 0.4033 l
0.9422 0.4023 l
0.9427 0.4013 l
0.9432 0.4003 l
0.9437 0.3993 l
0.9441 0.3983 l
0.9446 0.3973 l
0.9451 0.3963 l
0.9455 0.3953 l
0.9460 0.3943 l
0.9465 0.3933 l
0.9469 0.3923 l
0.9474 0.3913 l
0.9479 0.3903 l
0.9483 0.3893 l
0.9488 0.3883 l
0.9493 0.3873 l
0.9497 0.3862 l
s
[] 0 SD
0.0015 SLW
n
0.1500 0.1500 m
1.1500 0.1500 l
s
n
0.1500 0.8500 m
1.1500 0.8500 l
s
n
0.2750 0.1500 m
0.2750 0.1600 l
s
n
0.2750 0.8500 m
0.2750 0.8400 l
s
n
0.5250 0.1500 m
0.5250 0.1600 l
s
n
0.5250 0.8500 m
0.5250 0.8400 l
s
n
0.7750 0.1500 m
0.7750 0.1600 l
s
n
0.7750 0.8500 m
0.7750 0.8400 l
s
n
1.0250 0.1500 m
1.0250 0.1600 l
s
n
1.0250 0.8500 m
1.0250 0.8400 l
s
n
0.1500 0.1500 m
0.1500 0.1700 l
s
n
0.1500 0.8500 m
0.1500 0.8300 l
s
n
0.4000 0.1500 m
0.4000 0.1700 l
s
n
0.4000 0.8500 m
0.4000 0.8300 l
s
n
0.6500 0.1500 m
0.6500 0.1700 l
s
n
0.6500 0.8500 m
0.6500 0.8300 l
s
n
0.9000 0.1500 m
0.9000 0.1700 l
s
n
0.9000 0.8500 m
0.9000 0.8300 l
s
n
1.1500 0.1500 m
1.1500 0.1700 l
s
n
1.1500 0.8500 m
1.1500 0.8300 l
s
/Times-Roman findfont
dup length dict begin
 {1 index /FID ne {def} {pop pop} ifelse} forall
 /Encoding DefEncoding def
 currentdict
end
/Font34 exch definefont pop
/Font34 FFSF
0.1433 0.1212 m
GS
[0.0280 0.0000 0.0000 0.0280 0 0] CC
(0) show
GR
/Font34 FFSF
0.3863 0.1212 m
GS
[0.0280 0.0000 0.0000 0.0280 0 0] CC
(10) show
GR
/Font34 FFSF
0.6363 0.1212 m
GS
[0.0280 0.0000 0.0000 0.0280 0 0] CC
(20) show
GR
/Font34 FFSF
0.8863 0.1212 m
GS
[0.0280 0.0000 0.0000 0.0280 0 0] CC
(30) show
GR
/Font34 FFSF
1.1363 0.1212 m
GS
[0.0280 0.0000 0.0000 0.0280 0 0] CC
(40) show
GR
/Font34 FFSF
0.6057 0.0825 m
GS
[0.0420 0.0000 0.0000 0.0420 0 0] CC
(Y\(m\)) show
GR
n
0.1500 0.1500 m
0.1500 0.8500 l
s
n
1.1500 0.1500 m
1.1500 0.8500 l
s
n
0.1500 0.2375 m
0.1600 0.2375 l
s
n
1.1500 0.2375 m
1.1400 0.2375 l
s
n
0.1500 0.4125 m
0.1600 0.4125 l
s
n
1.1500 0.4125 m
1.1400 0.4125 l
s
n
0.1500 0.5875 m
0.1600 0.5875 l
s
n
1.1500 0.5875 m
1.1400 0.5875 l
s
n
0.1500 0.7625 m
0.1600 0.7625 l
s
n
1.1500 0.7625 m
1.1400 0.7625 l
s
n
0.1500 0.1500 m
0.1700 0.1500 l
s
n
1.1500 0.1500 m
1.1300 0.1500 l
s
n
0.1500 0.3250 m
0.1700 0.3250 l
s
n
1.1500 0.3250 m
1.1300 0.3250 l
s
n
0.1500 0.5000 m
0.1700 0.5000 l
s
n
1.1500 0.5000 m
1.1300 0.5000 l
s
n
0.1500 0.6750 m
0.1700 0.6750 l
s
n
1.1500 0.6750 m
1.1300 0.6750 l
s
n
0.1500 0.8500 m
0.1700 0.8500 l
s
n
1.1500 0.8500 m
1.1300 0.8500 l
s
/Font34 FFSF
0.1267 0.1408 m
GS
[0.0280 0.0000 0.0000 0.0280 0 0] CC
(0) show
GR
/Font34 FFSF
0.1290 0.3156 m
GS
[0.0280 0.0000 0.0000 0.0280 0 0] CC
(1) show
GR
/Font34 FFSF
0.1267 0.4906 m
GS
[0.0280 0.0000 0.0000 0.0280 0 0] CC
(2) show
GR
/Font34 FFSF
0.1278 0.6658 m
GS
[0.0280 0.0000 0.0000 0.0280 0 0] CC
(3) show
GR
/Font34 FFSF
0.1267 0.8406 m
GS
[0.0280 0.0000 0.0000 0.0280 0 0] CC
(4) show
GR
/Font34 FFSF
0.1092 0.4580 m
GS
[0.0000 0.0420 -0.0420 0.0000 0 0] CC
(Z\(m\)) show
GR
n
0.1500 0.1500 m
0.1500 0.8500 l
1.1500 0.8500 l
1.1500 0.1500 l
0.1500 0.1500 l
c
s
n
0.9500 0.1483 m
0.9500 0.5770 l
1.0490 0.5770 l
1.0490 0.1483 l
c
GS
Color0 SRGB
fill
GR
[/Pattern /DeviceRGB] SCS
Color1 Pattern18 SC
fill
[/DeviceRGB] SCS
Color1 SC
[] 0 SD
0.0030 SLW
n
0.9500 0.1483 m
0.9500 0.5770 l
1.0490 0.5770 l
1.0490 0.1483 l
0.9500 0.1483 l
c
s
/Font34 FFSF
0.2471 0.9222 m
GS
[0.0560 0.0000 0.0000 0.0560 0 0] CC
(Tryectoria del tiro realizado \(z vs y\)) show
GR
%%Trailer
%%BoundingBox: 48 44 714 589
%%DocumentNeededResources: font Times-Roman
%%EOF
