%!PS-Adobe-3.0 EPSF-3.0
%%BoundingBox: (atend)
%%LanguageLevel: 2
%%Creator: Grace-5.1.24
%%CreationDate: Tue Apr 12 10:08:39 2016
%%DocumentData: Clean8Bit
%%Orientation: Portrait
%%Title: /home/juanchoflo/Escritorio/UNAL2016-1/SimulacionSistemasFisicos/FuerzaDeMagnus/TrayectoriaYvsX.agr
%%For: juanchoflo
%%DocumentNeededResources: (atend)
%%EndComments
%%BeginProlog
/m {moveto} def
/l {lineto} def
/s {stroke} def
/n {newpath} def
/c {closepath} def
/RL {rlineto} def
/SLW {setlinewidth} def
/GS {gsave} def
/GR {grestore} def
/SC {setcolor} def
/SGRY {setgray} def
/SRGB {setrgbcolor} def
/SD {setdash} def
/SLC {setlinecap} def
/SLJ {setlinejoin} def
/SCS {setcolorspace} def
/FFSF {findfont setfont} def
/CC {concat} def
/PXL {n m 0 0 RL s} def
/Color0 {1.0000 1.0000 1.0000} def
/Color1 {0.0000 0.0000 0.0000} def
/Color2 {1.0000 0.0000 0.0000} def
/Color3 {0.0000 1.0000 0.0000} def
/Color4 {0.0000 0.0000 1.0000} def
/Color5 {1.0000 1.0000 0.0000} def
/Color6 {0.7373 0.5608 0.5608} def
/Color7 {0.8627 0.8627 0.8627} def
/Color8 {0.5804 0.0000 0.8275} def
/Color9 {0.0000 1.0000 1.0000} def
/Color10 {1.0000 0.0000 1.0000} def
/Color11 {1.0000 0.6471 0.0000} def
/Color12 {0.4471 0.1294 0.7373} def
/Color13 {0.4039 0.0275 0.2824} def
/Color14 {0.2510 0.8784 0.8157} def
/Color15 {0.0000 0.5451 0.0000} def
/Color16 {0.7529 0.7529 0.7529} def
/Color17 {0.5059 0.5059 0.5059} def
/Color18 {0.2588 0.2588 0.2588} def
/PTRN {
 /pat_bits exch def 
 <<
  /PaintType 2
  /PatternType 1 /TilingType 1
  /BBox[0 0 16 16]
  /XStep 16 /YStep 16
  /PaintProc {
   pop
   16 16 true [-1 0 0 -1 16 16] pat_bits imagemask
  }
 >>
 [0.0016 0 0 0.0016 0 0]
 makepattern
} def
/Pattern0 {<0000000000000000000000000000000000000000000000000000000000000000> PTRN} bind def
/Pattern1 {<ffffffffffffffffffffffffffffffffffffffffffffffffffffffffffffffff> PTRN} bind def
/Pattern2 {<eeeeffffbbbbffffeeeeffffbbbbffffeeeeffffbbbbffffeeeeffffbbbbffff> PTRN} bind def
/Pattern3 {<eeeebbbbeeeebbbbeeeebbbbeeeebbbbeeeebbbbeeeebbbbeeeebbbbeeeebbbb> PTRN} bind def
/Pattern4 {<5555aaaa5555aaaa5555aaaa5555aaaa5555aaaa5555aaaa5555aaaa5555aaaa> PTRN} bind def
/Pattern5 {<1111444411114444111144441111444411114444111144441111444411114444> PTRN} bind def
/Pattern6 {<1111000044440000111100004444000011110000444400001111000044440000> PTRN} bind def
/Pattern7 {<1010000000000000010100000000000010100000000000000101000000000000> PTRN} bind def
/Pattern8 {<0000000000000000000000000000000000000000000000000000000000000000> PTRN} bind def
/Pattern9 {<1e1e0f0f8787c3c3e1e1f0f078783c3c1e1e0f0f8787c3c3e1e1f0f078783c3c> PTRN} bind def
/Pattern10 {<7878f0f0e1e1c3c387870f0f1e1e3c3c7878f0f0e1e1c3c387870f0f1e1e3c3c> PTRN} bind def
/Pattern11 {<3333333333333333333333333333333333333333333333333333333333333333> PTRN} bind def
/Pattern12 {<ffffffff00000000ffffffff00000000ffffffff00000000ffffffff00000000> PTRN} bind def
/Pattern13 {<8181424224241818181824244242818181814242242418181818242442428181> PTRN} bind def
/Pattern14 {<8080404020201010080804040202010180804040202010100808040402020101> PTRN} bind def
/Pattern15 {<0101020204040808101020204040808001010202040408081010202040408080> PTRN} bind def
/Pattern16 {<2222222222222222222222222222222222222222222222222222222222222222> PTRN} bind def
/Pattern17 {<0000ffff000000000000ffff000000000000ffff000000000000ffff00000000> PTRN} bind def
/Pattern18 {<2222ffff222222222222ffff222222222222ffff222222222222ffff22222222> PTRN} bind def
/Pattern19 {<ffffffff33333333ffffffff33333333ffffffff33333333ffffffff33333333> PTRN} bind def
/Pattern20 {<0f0f0f0f0f0f0f0ff0f0f0f0f0f0f0f00f0f0f0f0f0f0f0ff0f0f0f0f0f0f0f0> PTRN} bind def
/Pattern21 {<ff00ff00ff00ff00ff00ff00ff00ff0000ff00ff00ff00ff00ff00ff00ff00ff> PTRN} bind def
/Pattern22 {<8001800180018001800180018001ffffffff8001800180018001800180018001> PTRN} bind def
/Pattern23 {<c003c003c003c003c003c003ffffffffffffffffc003c003c003c003c003c003> PTRN} bind def
/Pattern24 {<040404040404ffff404040404040ffff040404040404ffff404040404040ffff> PTRN} bind def
/Pattern25 {<180018001800180018001800ffffffff001800180018001800180018ffffffff> PTRN} bind def
/Pattern26 {<1111b8b87c7c3a3a1111a3a3c7c78b8b1111b8b87c7c3a3a1111a3a3c7c78b8b> PTRN} bind def
/Pattern27 {<101010102828c7c70101010182827c7c101010102828c7c70101010182827c7c> PTRN} bind def
/Pattern28 {<1c1c121211112121c1c12121111112121c1c121211112121c1c1212111111212> PTRN} bind def
/Pattern29 {<3e3e414180808080e3e31414080808083e3e414180808080e3e3141408080808> PTRN} bind def
/Pattern30 {<4848888884848383848488884848383848488888848483838484888848483838> PTRN} bind def
/Pattern31 {<03030404080808080c0c12122121c0c003030404080808080c0c12122121c0c0> PTRN} bind def
/ellipsedict 8 dict def
ellipsedict /mtrx matrix put
/EARC {
 ellipsedict begin
  /endangle exch def
  /startangle exch def
  /yrad exch def
  /xrad exch def
  /y exch def
  /x exch def
  /savematrix mtrx currentmatrix def
  x y translate
  xrad yrad scale
  0 0 1 startangle endangle arc
  savematrix setmatrix
 end
} def
/TL {
  /kcomp exch def
  /linewidth exch def
  /offset exch def
  GS
  0 offset rmoveto
  linewidth SLW
  dup stringwidth exch kcomp add exch RL s
  GR
} def
/KINIT
{
 /kvector exch def
 /kid 0 def
} def
/KPROC
{
 pop pop
 kvector kid get
 0 rmoveto
 /kid 1 kid add def
} def
/DefEncoding [
 /.notdef
 /.notdef
 /.notdef
 /.notdef
 /.notdef
 /.notdef
 /.notdef
 /.notdef
 /.notdef
 /.notdef
 /.notdef
 /.notdef
 /.notdef
 /.notdef
 /.notdef
 /.notdef
 /.notdef
 /.notdef
 /.notdef
 /.notdef
 /.notdef
 /.notdef
 /.notdef
 /.notdef
 /.notdef
 /.notdef
 /.notdef
 /.notdef
 /.notdef
 /.notdef
 /.notdef
 /.notdef
 /space
 /exclam
 /quotedbl
 /numbersign
 /dollar
 /percent
 /ampersand
 /quoteright
 /parenleft
 /parenright
 /asterisk
 /plus
 /comma
 /hyphen
 /period
 /slash
 /zero
 /one
 /two
 /three
 /four
 /five
 /six
 /seven
 /eight
 /nine
 /colon
 /semicolon
 /less
 /equal
 /greater
 /question
 /at
 /A
 /B
 /C
 /D
 /E
 /F
 /G
 /H
 /I
 /J
 /K
 /L
 /M
 /N
 /O
 /P
 /Q
 /R
 /S
 /T
 /U
 /V
 /W
 /X
 /Y
 /Z
 /bracketleft
 /backslash
 /bracketright
 /asciicircum
 /underscore
 /grave
 /a
 /b
 /c
 /d
 /e
 /f
 /g
 /h
 /i
 /j
 /k
 /l
 /m
 /n
 /o
 /p
 /q
 /r
 /s
 /t
 /u
 /v
 /w
 /x
 /y
 /z
 /braceleft
 /bar
 /braceright
 /asciitilde
 /.notdef
 /.notdef
 /.notdef
 /.notdef
 /.notdef
 /.notdef
 /.notdef
 /.notdef
 /.notdef
 /.notdef
 /.notdef
 /.notdef
 /.notdef
 /.notdef
 /.notdef
 /.notdef
 /.notdef
 /.notdef
 /.notdef
 /.notdef
 /.notdef
 /.notdef
 /.notdef
 /.notdef
 /.notdef
 /.notdef
 /.notdef
 /.notdef
 /.notdef
 /.notdef
 /.notdef
 /.notdef
 /.notdef
 /space
 /exclamdown
 /cent
 /sterling
 /currency
 /yen
 /brokenbar
 /section
 /dieresis
 /copyright
 /ordfeminine
 /guillemotleft
 /logicalnot
 /hyphen
 /registered
 /macron
 /degree
 /plusminus
 /twosuperior
 /threesuperior
 /acute
 /mu
 /paragraph
 /periodcentered
 /cedilla
 /onesuperior
 /ordmasculine
 /guillemotright
 /onequarter
 /onehalf
 /threequarters
 /questiondown
 /Agrave
 /Aacute
 /Acircumflex
 /Atilde
 /Adieresis
 /Aring
 /AE
 /Ccedilla
 /Egrave
 /Eacute
 /Ecircumflex
 /Edieresis
 /Igrave
 /Iacute
 /Icircumflex
 /Idieresis
 /Eth
 /Ntilde
 /Ograve
 /Oacute
 /Ocircumflex
 /Otilde
 /Odieresis
 /multiply
 /Oslash
 /Ugrave
 /Uacute
 /Ucircumflex
 /Udieresis
 /Yacute
 /Thorn
 /germandbls
 /agrave
 /aacute
 /acircumflex
 /atilde
 /adieresis
 /aring
 /ae
 /ccedilla
 /egrave
 /eacute
 /ecircumflex
 /edieresis
 /igrave
 /iacute
 /icircumflex
 /idieresis
 /eth
 /ntilde
 /ograve
 /oacute
 /ocircumflex
 /otilde
 /odieresis
 /divide
 /oslash
 /ugrave
 /uacute
 /ucircumflex
 /udieresis
 /yacute
 /thorn
 /ydieresis
] def
%%EndProlog
%%BeginSetup
%%EndSetup
612.00 612.00 scale
n
0.0000 0.0000 m
0.0000 1.0000 l
1.2941 1.0000 l
1.2941 0.0000 l
c
[/DeviceRGB] SCS
Color0 SC
fill
[/DeviceRGB] SCS
Color1 SC
[] 0 SD
0.0045 SLW
0 SLC
0 SLJ
n
0.8500 0.1500 m
0.8507 0.1505 l
0.8513 0.1510 l
0.8520 0.1515 l
0.8527 0.1520 l
0.8533 0.1525 l
0.8540 0.1530 l
0.8546 0.1535 l
0.8553 0.1540 l
0.8560 0.1544 l
0.8566 0.1549 l
0.8573 0.1554 l
0.8579 0.1559 l
0.8586 0.1564 l
0.8592 0.1569 l
0.8599 0.1574 l
0.8605 0.1579 l
0.8612 0.1584 l
0.8618 0.1589 l
0.8624 0.1594 l
0.8631 0.1599 l
0.8637 0.1604 l
0.8644 0.1608 l
0.8650 0.1613 l
0.8656 0.1618 l
0.8663 0.1623 l
0.8669 0.1628 l
0.8675 0.1633 l
0.8682 0.1638 l
0.8688 0.1643 l
0.8694 0.1648 l
0.8701 0.1653 l
0.8707 0.1657 l
0.8713 0.1662 l
0.8719 0.1667 l
0.8725 0.1672 l
0.8732 0.1677 l
0.8738 0.1682 l
0.8744 0.1687 l
0.8750 0.1692 l
0.8756 0.1696 l
0.8762 0.1701 l
0.8768 0.1706 l
0.8775 0.1711 l
0.8781 0.1716 l
0.8787 0.1721 l
0.8793 0.1726 l
0.8799 0.1730 l
0.8805 0.1735 l
0.8811 0.1740 l
0.8817 0.1745 l
0.8823 0.1750 l
0.8829 0.1755 l
0.8835 0.1760 l
0.8841 0.1764 l
0.8847 0.1769 l
0.8853 0.1774 l
0.8859 0.1779 l
0.8864 0.1784 l
0.8870 0.1789 l
0.8876 0.1793 l
0.8882 0.1798 l
0.8888 0.1803 l
0.8894 0.1808 l
0.8900 0.1813 l
0.8905 0.1818 l
0.8911 0.1822 l
0.8917 0.1827 l
0.8923 0.1832 l
0.8928 0.1837 l
0.8934 0.1842 l
0.8940 0.1846 l
0.8946 0.1851 l
0.8951 0.1856 l
0.8957 0.1861 l
0.8963 0.1866 l
0.8968 0.1871 l
0.8974 0.1875 l
0.8980 0.1880 l
0.8985 0.1885 l
0.8991 0.1890 l
0.8996 0.1895 l
0.9002 0.1899 l
0.9008 0.1904 l
0.9013 0.1909 l
0.9019 0.1914 l
0.9024 0.1918 l
0.9030 0.1923 l
0.9035 0.1928 l
0.9041 0.1933 l
0.9046 0.1938 l
0.9052 0.1942 l
0.9057 0.1947 l
0.9063 0.1952 l
0.9068 0.1957 l
0.9074 0.1961 l
0.9079 0.1966 l
0.9084 0.1971 l
0.9090 0.1976 l
0.9095 0.1980 l
0.9101 0.1985 l
0.9106 0.1990 l
0.9111 0.1995 l
0.9117 0.1999 l
0.9122 0.2004 l
0.9127 0.2009 l
0.9133 0.2014 l
0.9138 0.2018 l
0.9143 0.2023 l
0.9148 0.2028 l
0.9154 0.2033 l
0.9159 0.2037 l
0.9164 0.2042 l
0.9169 0.2047 l
0.9174 0.2052 l
0.9180 0.2056 l
0.9185 0.2061 l
0.9190 0.2066 l
0.9195 0.2071 l
0.9200 0.2075 l
0.9205 0.2080 l
0.9210 0.2085 l
0.9216 0.2089 l
0.9221 0.2094 l
0.9226 0.2099 l
0.9231 0.2104 l
0.9236 0.2108 l
0.9241 0.2113 l
0.9246 0.2118 l
0.9251 0.2122 l
0.9256 0.2127 l
0.9261 0.2132 l
0.9266 0.2136 l
0.9271 0.2141 l
0.9276 0.2146 l
0.9281 0.2151 l
0.9286 0.2155 l
0.9291 0.2160 l
0.9296 0.2165 l
0.9301 0.2169 l
0.9305 0.2174 l
0.9310 0.2179 l
0.9315 0.2183 l
0.9320 0.2188 l
0.9325 0.2193 l
0.9330 0.2197 l
0.9335 0.2202 l
0.9339 0.2207 l
0.9344 0.2211 l
0.9349 0.2216 l
0.9354 0.2221 l
0.9358 0.2225 l
0.9363 0.2230 l
0.9368 0.2235 l
0.9373 0.2239 l
0.9377 0.2244 l
0.9382 0.2249 l
0.9387 0.2253 l
0.9392 0.2258 l
0.9396 0.2263 l
0.9401 0.2267 l
0.9406 0.2272 l
0.9410 0.2277 l
0.9415 0.2281 l
0.9419 0.2286 l
0.9424 0.2291 l
0.9429 0.2295 l
0.9433 0.2300 l
0.9438 0.2304 l
0.9442 0.2309 l
0.9447 0.2314 l
0.9452 0.2318 l
0.9456 0.2323 l
0.9461 0.2328 l
0.9465 0.2332 l
0.9470 0.2337 l
0.9474 0.2341 l
0.9479 0.2346 l
0.9483 0.2351 l
0.9488 0.2355 l
0.9492 0.2360 l
0.9496 0.2365 l
0.9501 0.2369 l
0.9505 0.2374 l
0.9510 0.2378 l
0.9514 0.2383 l
0.9518 0.2388 l
0.9523 0.2392 l
0.9527 0.2397 l
0.9532 0.2401 l
0.9536 0.2406 l
0.9540 0.2411 l
0.9545 0.2415 l
0.9549 0.2420 l
0.9553 0.2424 l
0.9557 0.2429 l
0.9562 0.2434 l
0.9566 0.2438 l
0.9570 0.2443 l
0.9574 0.2447 l
0.9579 0.2452 l
0.9583 0.2456 l
0.9587 0.2461 l
0.9591 0.2466 l
0.9596 0.2470 l
0.9600 0.2475 l
0.9604 0.2479 l
0.9608 0.2484 l
0.9612 0.2488 l
0.9616 0.2493 l
0.9621 0.2498 l
0.9625 0.2502 l
0.9629 0.2507 l
0.9633 0.2511 l
0.9637 0.2516 l
0.9641 0.2520 l
0.9645 0.2525 l
0.9649 0.2529 l
0.9653 0.2534 l
0.9657 0.2539 l
0.9661 0.2543 l
0.9665 0.2548 l
0.9669 0.2552 l
0.9673 0.2557 l
0.9677 0.2561 l
0.9681 0.2566 l
0.9685 0.2570 l
0.9689 0.2575 l
0.9693 0.2579 l
0.9697 0.2584 l
0.9701 0.2589 l
0.9705 0.2593 l
0.9709 0.2598 l
0.9713 0.2602 l
0.9717 0.2607 l
0.9721 0.2611 l
0.9725 0.2616 l
0.9728 0.2620 l
0.9732 0.2625 l
0.9736 0.2629 l
0.9740 0.2634 l
0.9744 0.2638 l
0.9748 0.2643 l
0.9751 0.2647 l
0.9755 0.2652 l
0.9759 0.2656 l
0.9763 0.2661 l
0.9766 0.2665 l
0.9770 0.2670 l
0.9774 0.2674 l
0.9778 0.2679 l
0.9781 0.2683 l
0.9785 0.2688 l
0.9789 0.2692 l
0.9793 0.2697 l
0.9796 0.2701 l
0.9800 0.2706 l
0.9804 0.2710 l
0.9807 0.2715 l
0.9811 0.2719 l
0.9815 0.2724 l
0.9818 0.2728 l
0.9822 0.2733 l
0.9825 0.2737 l
0.9829 0.2742 l
0.9833 0.2746 l
0.9836 0.2751 l
0.9840 0.2755 l
0.9843 0.2759 l
0.9847 0.2764 l
0.9851 0.2768 l
0.9854 0.2773 l
0.9858 0.2777 l
0.9861 0.2782 l
0.9865 0.2786 l
0.9868 0.2791 l
0.9872 0.2795 l
0.9875 0.2800 l
0.9879 0.2804 l
0.9882 0.2809 l
0.9886 0.2813 l
0.9889 0.2817 l
0.9892 0.2822 l
0.9896 0.2826 l
0.9899 0.2831 l
0.9903 0.2835 l
0.9906 0.2840 l
0.9909 0.2844 l
0.9913 0.2849 l
0.9916 0.2853 l
0.9920 0.2857 l
0.9923 0.2862 l
0.9926 0.2866 l
0.9930 0.2871 l
0.9933 0.2875 l
0.9936 0.2880 l
0.9940 0.2884 l
0.9943 0.2888 l
0.9946 0.2893 l
0.9949 0.2897 l
0.9953 0.2902 l
0.9956 0.2906 l
0.9959 0.2911 l
0.9963 0.2915 l
0.9966 0.2919 l
0.9969 0.2924 l
0.9972 0.2928 l
0.9975 0.2933 l
0.9979 0.2937 l
0.9982 0.2941 l
0.9985 0.2946 l
0.9988 0.2950 l
0.9991 0.2955 l
0.9995 0.2959 l
0.9998 0.2963 l
1.0001 0.2968 l
1.0004 0.2972 l
1.0007 0.2977 l
1.0010 0.2981 l
1.0013 0.2985 l
1.0016 0.2990 l
1.0020 0.2994 l
1.0023 0.2999 l
1.0026 0.3003 l
1.0029 0.3007 l
1.0032 0.3012 l
1.0035 0.3016 l
1.0038 0.3020 l
1.0041 0.3025 l
1.0044 0.3029 l
1.0047 0.3034 l
1.0050 0.3038 l
1.0053 0.3042 l
1.0056 0.3047 l
1.0059 0.3051 l
1.0062 0.3055 l
1.0065 0.3060 l
1.0068 0.3064 l
1.0071 0.3069 l
1.0074 0.3073 l
1.0077 0.3077 l
1.0080 0.3082 l
1.0083 0.3086 l
1.0085 0.3090 l
1.0088 0.3095 l
1.0091 0.3099 l
1.0094 0.3103 l
1.0097 0.3108 l
1.0100 0.3112 l
1.0103 0.3116 l
1.0106 0.3121 l
1.0108 0.3125 l
1.0111 0.3129 l
1.0114 0.3134 l
1.0117 0.3138 l
1.0120 0.3142 l
1.0122 0.3147 l
1.0125 0.3151 l
1.0128 0.3155 l
1.0131 0.3160 l
1.0134 0.3164 l
1.0136 0.3168 l
1.0139 0.3173 l
1.0142 0.3177 l
1.0145 0.3181 l
1.0147 0.3186 l
1.0150 0.3190 l
1.0153 0.3194 l
1.0155 0.3199 l
1.0158 0.3203 l
1.0161 0.3207 l
1.0164 0.3212 l
1.0166 0.3216 l
1.0169 0.3220 l
1.0172 0.3225 l
1.0174 0.3229 l
1.0177 0.3233 l
1.0179 0.3237 l
1.0182 0.3242 l
1.0185 0.3246 l
1.0187 0.3250 l
1.0190 0.3255 l
1.0192 0.3259 l
1.0195 0.3263 l
1.0198 0.3268 l
1.0200 0.3272 l
1.0203 0.3276 l
1.0205 0.3280 l
1.0208 0.3285 l
1.0210 0.3289 l
1.0213 0.3293 l
1.0215 0.3298 l
1.0218 0.3302 l
1.0220 0.3306 l
1.0223 0.3310 l
1.0225 0.3315 l
1.0228 0.3319 l
1.0230 0.3323 l
1.0233 0.3328 l
1.0235 0.3332 l
1.0238 0.3336 l
1.0240 0.3340 l
1.0243 0.3345 l
1.0245 0.3349 l
1.0248 0.3353 l
1.0250 0.3357 l
1.0252 0.3362 l
1.0255 0.3366 l
1.0257 0.3370 l
1.0260 0.3375 l
1.0262 0.3379 l
1.0264 0.3383 l
1.0267 0.3387 l
1.0269 0.3392 l
1.0271 0.3396 l
1.0274 0.3400 l
1.0276 0.3404 l
1.0278 0.3409 l
1.0281 0.3413 l
1.0283 0.3417 l
1.0285 0.3421 l
1.0288 0.3426 l
1.0290 0.3430 l
1.0292 0.3434 l
1.0294 0.3438 l
1.0297 0.3443 l
1.0299 0.3447 l
1.0301 0.3451 l
1.0303 0.3455 l
1.0306 0.3459 l
1.0308 0.3464 l
1.0310 0.3468 l
1.0312 0.3472 l
1.0315 0.3476 l
1.0317 0.3481 l
1.0319 0.3485 l
1.0321 0.3489 l
1.0323 0.3493 l
1.0325 0.3497 l
1.0328 0.3502 l
1.0330 0.3506 l
1.0332 0.3510 l
1.0334 0.3514 l
1.0336 0.3519 l
1.0338 0.3523 l
1.0340 0.3527 l
1.0343 0.3531 l
1.0345 0.3535 l
1.0347 0.3540 l
1.0349 0.3544 l
1.0351 0.3548 l
1.0353 0.3552 l
1.0355 0.3556 l
1.0357 0.3561 l
1.0359 0.3565 l
1.0361 0.3569 l
1.0363 0.3573 l
1.0365 0.3577 l
1.0367 0.3582 l
1.0369 0.3586 l
1.0371 0.3590 l
1.0373 0.3594 l
1.0375 0.3598 l
1.0377 0.3603 l
1.0379 0.3607 l
1.0381 0.3611 l
1.0383 0.3615 l
1.0385 0.3619 l
1.0387 0.3623 l
1.0389 0.3628 l
1.0391 0.3632 l
1.0393 0.3636 l
1.0395 0.3640 l
1.0397 0.3644 l
1.0399 0.3648 l
1.0401 0.3653 l
1.0403 0.3657 l
1.0405 0.3661 l
1.0407 0.3665 l
1.0408 0.3669 l
1.0410 0.3674 l
1.0412 0.3678 l
1.0414 0.3682 l
1.0416 0.3686 l
1.0418 0.3690 l
1.0420 0.3694 l
1.0421 0.3698 l
1.0423 0.3703 l
1.0425 0.3707 l
1.0427 0.3711 l
1.0429 0.3715 l
1.0431 0.3719 l
1.0432 0.3723 l
1.0434 0.3728 l
1.0436 0.3732 l
1.0438 0.3736 l
1.0439 0.3740 l
1.0441 0.3744 l
1.0443 0.3748 l
1.0445 0.3752 l
1.0446 0.3757 l
1.0448 0.3761 l
1.0450 0.3765 l
1.0452 0.3769 l
1.0453 0.3773 l
1.0455 0.3777 l
1.0457 0.3781 l
1.0458 0.3785 l
1.0460 0.3790 l
1.0462 0.3794 l
1.0464 0.3798 l
1.0465 0.3802 l
1.0467 0.3806 l
1.0469 0.3810 l
1.0470 0.3814 l
1.0472 0.3818 l
1.0473 0.3823 l
1.0475 0.3827 l
1.0477 0.3831 l
1.0478 0.3835 l
1.0480 0.3839 l
1.0482 0.3843 l
1.0483 0.3847 l
1.0485 0.3851 l
1.0486 0.3855 l
1.0488 0.3860 l
1.0490 0.3864 l
1.0491 0.3868 l
1.0493 0.3872 l
1.0494 0.3876 l
1.0496 0.3880 l
1.0497 0.3884 l
1.0499 0.3888 l
1.0500 0.3892 l
1.0502 0.3896 l
1.0503 0.3901 l
1.0505 0.3905 l
1.0506 0.3909 l
1.0508 0.3913 l
1.0509 0.3917 l
1.0511 0.3921 l
1.0512 0.3925 l
1.0514 0.3929 l
1.0515 0.3933 l
1.0517 0.3937 l
1.0518 0.3941 l
1.0520 0.3945 l
1.0521 0.3950 l
1.0523 0.3954 l
1.0524 0.3958 l
1.0526 0.3962 l
1.0527 0.3966 l
1.0528 0.3970 l
1.0530 0.3974 l
1.0531 0.3978 l
1.0533 0.3982 l
1.0534 0.3986 l
1.0535 0.3990 l
1.0537 0.3994 l
1.0538 0.3998 l
1.0539 0.4002 l
1.0541 0.4007 l
1.0542 0.4011 l
1.0544 0.4015 l
1.0545 0.4019 l
1.0546 0.4023 l
1.0548 0.4027 l
1.0549 0.4031 l
1.0550 0.4035 l
1.0551 0.4039 l
1.0553 0.4043 l
1.0554 0.4047 l
1.0555 0.4051 l
1.0557 0.4055 l
1.0558 0.4059 l
1.0559 0.4063 l
1.0561 0.4067 l
1.0562 0.4071 l
1.0563 0.4075 l
1.0564 0.4079 l
1.0566 0.4083 l
1.0567 0.4087 l
1.0568 0.4092 l
1.0569 0.4096 l
1.0570 0.4100 l
1.0572 0.4104 l
1.0573 0.4108 l
1.0574 0.4112 l
1.0575 0.4116 l
1.0577 0.4120 l
1.0578 0.4124 l
1.0579 0.4128 l
1.0580 0.4132 l
1.0581 0.4136 l
1.0582 0.4140 l
1.0584 0.4144 l
1.0585 0.4148 l
1.0586 0.4152 l
1.0587 0.4156 l
1.0588 0.4160 l
1.0589 0.4164 l
1.0590 0.4168 l
1.0592 0.4172 l
1.0593 0.4176 l
1.0594 0.4180 l
1.0595 0.4184 l
1.0596 0.4188 l
1.0597 0.4192 l
1.0598 0.4196 l
1.0599 0.4200 l
1.0600 0.4204 l
1.0601 0.4208 l
1.0602 0.4212 l
1.0603 0.4216 l
1.0605 0.4220 l
1.0606 0.4224 l
1.0607 0.4228 l
1.0608 0.4232 l
1.0609 0.4236 l
1.0610 0.4240 l
1.0611 0.4244 l
1.0612 0.4248 l
1.0613 0.4252 l
1.0614 0.4256 l
1.0615 0.4260 l
1.0616 0.4264 l
1.0617 0.4268 l
1.0618 0.4272 l
1.0619 0.4276 l
1.0620 0.4280 l
1.0621 0.4284 l
1.0622 0.4288 l
1.0623 0.4292 l
1.0624 0.4296 l
1.0624 0.4300 l
1.0625 0.4304 l
1.0626 0.4308 l
1.0627 0.4312 l
1.0628 0.4316 l
1.0629 0.4320 l
1.0630 0.4324 l
1.0631 0.4328 l
1.0632 0.4331 l
1.0633 0.4335 l
1.0634 0.4339 l
1.0635 0.4343 l
1.0635 0.4347 l
1.0636 0.4351 l
1.0637 0.4355 l
1.0638 0.4359 l
1.0639 0.4363 l
1.0640 0.4367 l
1.0641 0.4371 l
1.0641 0.4375 l
1.0642 0.4379 l
1.0643 0.4383 l
1.0644 0.4387 l
1.0645 0.4391 l
1.0646 0.4395 l
1.0646 0.4399 l
1.0647 0.4403 l
1.0648 0.4407 l
1.0649 0.4411 l
1.0650 0.4414 l
1.0650 0.4418 l
1.0651 0.4422 l
1.0652 0.4426 l
1.0653 0.4430 l
1.0653 0.4434 l
1.0654 0.4438 l
1.0655 0.4442 l
1.0656 0.4446 l
1.0656 0.4450 l
1.0657 0.4454 l
1.0658 0.4458 l
1.0659 0.4462 l
1.0659 0.4466 l
1.0660 0.4470 l
1.0661 0.4473 l
1.0661 0.4477 l
1.0662 0.4481 l
1.0663 0.4485 l
1.0664 0.4489 l
1.0664 0.4493 l
1.0665 0.4497 l
1.0666 0.4501 l
1.0666 0.4505 l
1.0667 0.4509 l
1.0668 0.4513 l
1.0668 0.4517 l
1.0669 0.4520 l
1.0670 0.4524 l
1.0670 0.4528 l
1.0671 0.4532 l
1.0671 0.4536 l
1.0672 0.4540 l
1.0673 0.4544 l
1.0673 0.4548 l
1.0674 0.4552 l
1.0675 0.4556 l
1.0675 0.4559 l
1.0676 0.4563 l
1.0676 0.4567 l
1.0677 0.4571 l
1.0678 0.4575 l
1.0678 0.4579 l
1.0679 0.4583 l
1.0679 0.4587 l
1.0680 0.4591 l
1.0680 0.4595 l
1.0681 0.4598 l
1.0681 0.4602 l
1.0682 0.4606 l
1.0683 0.4610 l
1.0683 0.4614 l
1.0684 0.4618 l
1.0684 0.4622 l
1.0685 0.4626 l
1.0685 0.4629 l
1.0686 0.4633 l
1.0686 0.4637 l
1.0687 0.4641 l
1.0687 0.4645 l
1.0688 0.4649 l
1.0688 0.4653 l
1.0689 0.4657 l
1.0689 0.4660 l
1.0690 0.4664 l
1.0690 0.4668 l
1.0690 0.4672 l
1.0691 0.4676 l
1.0691 0.4680 l
1.0692 0.4684 l
1.0692 0.4688 l
1.0693 0.4691 l
1.0693 0.4695 l
1.0694 0.4699 l
1.0694 0.4703 l
1.0694 0.4707 l
1.0695 0.4711 l
1.0695 0.4715 l
1.0696 0.4718 l
1.0696 0.4722 l
1.0696 0.4726 l
1.0697 0.4730 l
1.0697 0.4734 l
1.0698 0.4738 l
1.0698 0.4742 l
1.0698 0.4745 l
1.0699 0.4749 l
1.0699 0.4753 l
1.0699 0.4757 l
1.0700 0.4761 l
1.0700 0.4765 l
1.0701 0.4768 l
1.0701 0.4772 l
1.0701 0.4776 l
1.0702 0.4780 l
1.0702 0.4784 l
1.0702 0.4788 l
1.0702 0.4791 l
1.0703 0.4795 l
1.0703 0.4799 l
1.0703 0.4803 l
1.0704 0.4807 l
1.0704 0.4811 l
1.0704 0.4814 l
1.0705 0.4818 l
1.0705 0.4822 l
1.0705 0.4826 l
1.0705 0.4830 l
1.0706 0.4834 l
1.0706 0.4837 l
1.0706 0.4841 l
1.0706 0.4845 l
1.0707 0.4849 l
1.0707 0.4853 l
1.0707 0.4856 l
1.0707 0.4860 l
1.0708 0.4864 l
1.0708 0.4868 l
1.0708 0.4872 l
1.0708 0.4876 l
1.0709 0.4879 l
1.0709 0.4883 l
1.0709 0.4887 l
1.0709 0.4891 l
1.0709 0.4895 l
1.0710 0.4898 l
1.0710 0.4902 l
1.0710 0.4906 l
1.0710 0.4910 l
1.0710 0.4914 l
1.0710 0.4917 l
1.0711 0.4921 l
1.0711 0.4925 l
1.0711 0.4929 l
1.0711 0.4933 l
1.0711 0.4936 l
1.0711 0.4940 l
1.0712 0.4944 l
1.0712 0.4948 l
1.0712 0.4952 l
1.0712 0.4955 l
1.0712 0.4959 l
1.0712 0.4963 l
1.0712 0.4967 l
1.0712 0.4971 l
1.0712 0.4974 l
1.0713 0.4978 l
1.0713 0.4982 l
1.0713 0.4986 l
1.0713 0.4989 l
1.0713 0.4993 l
1.0713 0.4997 l
1.0713 0.5001 l
1.0713 0.5005 l
1.0713 0.5008 l
1.0713 0.5012 l
1.0713 0.5016 l
1.0713 0.5020 l
1.0713 0.5023 l
1.0714 0.5027 l
1.0714 0.5031 l
1.0714 0.5035 l
1.0714 0.5039 l
1.0714 0.5042 l
1.0714 0.5046 l
1.0714 0.5050 l
1.0714 0.5054 l
1.0714 0.5057 l
1.0714 0.5061 l
1.0714 0.5065 l
1.0714 0.5069 l
1.0714 0.5072 l
1.0714 0.5076 l
1.0714 0.5080 l
1.0714 0.5084 l
1.0714 0.5087 l
1.0714 0.5091 l
1.0714 0.5095 l
1.0714 0.5099 l
1.0714 0.5102 l
1.0714 0.5106 l
1.0713 0.5110 l
1.0713 0.5114 l
1.0713 0.5117 l
1.0713 0.5121 l
1.0713 0.5125 l
1.0713 0.5129 l
1.0713 0.5132 l
1.0713 0.5136 l
1.0713 0.5140 l
1.0713 0.5144 l
1.0713 0.5147 l
1.0713 0.5151 l
1.0713 0.5155 l
1.0713 0.5159 l
1.0712 0.5162 l
1.0712 0.5166 l
1.0712 0.5170 l
1.0712 0.5173 l
1.0712 0.5177 l
1.0712 0.5181 l
1.0712 0.5185 l
1.0712 0.5188 l
1.0712 0.5192 l
1.0711 0.5196 l
1.0711 0.5200 l
1.0711 0.5203 l
1.0711 0.5207 l
1.0711 0.5211 l
1.0711 0.5214 l
1.0710 0.5218 l
1.0710 0.5222 l
1.0710 0.5226 l
1.0710 0.5229 l
1.0710 0.5233 l
1.0710 0.5237 l
1.0709 0.5240 l
1.0709 0.5244 l
1.0709 0.5248 l
1.0709 0.5252 l
1.0709 0.5255 l
1.0708 0.5259 l
1.0708 0.5263 l
1.0708 0.5266 l
1.0708 0.5270 l
1.0708 0.5274 l
1.0707 0.5278 l
1.0707 0.5281 l
1.0707 0.5285 l
1.0707 0.5289 l
1.0706 0.5292 l
1.0706 0.5296 l
1.0706 0.5300 l
1.0706 0.5303 l
1.0705 0.5307 l
1.0705 0.5311 l
1.0705 0.5315 l
1.0705 0.5318 l
1.0704 0.5322 l
1.0704 0.5326 l
1.0704 0.5329 l
1.0704 0.5333 l
1.0703 0.5337 l
1.0703 0.5340 l
1.0703 0.5344 l
1.0702 0.5348 l
1.0702 0.5351 l
1.0702 0.5355 l
1.0702 0.5359 l
1.0701 0.5362 l
1.0701 0.5366 l
1.0701 0.5370 l
1.0700 0.5374 l
1.0700 0.5377 l
1.0700 0.5381 l
1.0699 0.5385 l
1.0699 0.5388 l
1.0699 0.5392 l
1.0698 0.5396 l
1.0698 0.5399 l
1.0698 0.5403 l
1.0697 0.5407 l
1.0697 0.5410 l
1.0697 0.5414 l
1.0696 0.5418 l
1.0696 0.5421 l
1.0695 0.5425 l
1.0695 0.5429 l
1.0695 0.5432 l
1.0694 0.5436 l
1.0694 0.5440 l
1.0694 0.5443 l
1.0693 0.5447 l
1.0693 0.5451 l
1.0692 0.5454 l
1.0692 0.5458 l
1.0692 0.5462 l
1.0691 0.5465 l
1.0691 0.5469 l
1.0690 0.5473 l
1.0690 0.5476 l
1.0689 0.5480 l
1.0689 0.5483 l
1.0689 0.5487 l
1.0688 0.5491 l
1.0688 0.5494 l
1.0687 0.5498 l
1.0687 0.5502 l
1.0686 0.5505 l
1.0686 0.5509 l
1.0685 0.5513 l
1.0685 0.5516 l
1.0685 0.5520 l
1.0684 0.5524 l
1.0684 0.5527 l
1.0683 0.5531 l
1.0683 0.5535 l
1.0682 0.5538 l
1.0682 0.5542 l
1.0681 0.5545 l
1.0681 0.5549 l
1.0680 0.5553 l
1.0680 0.5556 l
1.0679 0.5560 l
1.0679 0.5564 l
1.0678 0.5567 l
1.0678 0.5571 l
1.0677 0.5574 l
1.0677 0.5578 l
1.0676 0.5582 l
1.0676 0.5585 l
1.0675 0.5589 l
1.0675 0.5593 l
1.0674 0.5596 l
1.0673 0.5600 l
1.0673 0.5603 l
1.0672 0.5607 l
1.0672 0.5611 l
1.0671 0.5614 l
1.0671 0.5618 l
1.0670 0.5622 l
1.0670 0.5625 l
1.0669 0.5629 l
1.0668 0.5632 l
1.0668 0.5636 l
1.0667 0.5640 l
1.0667 0.5643 l
1.0666 0.5647 l
1.0666 0.5650 l
1.0665 0.5654 l
1.0664 0.5658 l
1.0664 0.5661 l
1.0663 0.5665 l
1.0663 0.5668 l
1.0662 0.5672 l
1.0661 0.5676 l
1.0661 0.5679 l
1.0660 0.5683 l
1.0659 0.5686 l
1.0659 0.5690 l
1.0658 0.5694 l
1.0658 0.5697 l
1.0657 0.5701 l
1.0656 0.5704 l
1.0656 0.5708 l
1.0655 0.5712 l
1.0654 0.5715 l
1.0654 0.5719 l
1.0653 0.5722 l
1.0652 0.5726 l
1.0652 0.5730 l
1.0651 0.5733 l
1.0650 0.5737 l
1.0650 0.5740 l
1.0649 0.5744 l
1.0648 0.5748 l
1.0648 0.5751 l
1.0647 0.5755 l
1.0646 0.5758 l
1.0646 0.5762 l
1.0645 0.5765 l
1.0644 0.5769 l
1.0644 0.5773 l
1.0643 0.5776 l
1.0642 0.5780 l
1.0641 0.5783 l
1.0641 0.5787 l
1.0640 0.5790 l
1.0639 0.5794 l
1.0639 0.5798 l
1.0638 0.5801 l
1.0637 0.5805 l
1.0636 0.5808 l
1.0636 0.5812 l
1.0635 0.5815 l
1.0634 0.5819 l
1.0633 0.5823 l
1.0633 0.5826 l
1.0632 0.5830 l
1.0631 0.5833 l
1.0630 0.5837 l
1.0630 0.5840 l
1.0629 0.5844 l
1.0628 0.5848 l
1.0627 0.5851 l
1.0627 0.5855 l
1.0626 0.5858 l
1.0625 0.5862 l
1.0624 0.5865 l
1.0624 0.5869 l
1.0623 0.5872 l
1.0622 0.5876 l
1.0621 0.5880 l
1.0620 0.5883 l
1.0620 0.5887 l
1.0619 0.5890 l
1.0618 0.5894 l
1.0617 0.5897 l
1.0616 0.5901 l
1.0616 0.5904 l
1.0615 0.5908 l
1.0614 0.5911 l
1.0613 0.5915 l
1.0612 0.5919 l
1.0611 0.5922 l
1.0611 0.5926 l
1.0610 0.5929 l
1.0609 0.5933 l
1.0608 0.5936 l
1.0607 0.5940 l
1.0606 0.5943 l
1.0605 0.5947 l
1.0605 0.5950 l
1.0604 0.5954 l
1.0603 0.5957 l
1.0602 0.5961 l
1.0601 0.5965 l
1.0600 0.5968 l
1.0599 0.5972 l
1.0599 0.5975 l
1.0598 0.5979 l
1.0597 0.5982 l
1.0596 0.5986 l
1.0595 0.5989 l
1.0594 0.5993 l
1.0593 0.5996 l
1.0592 0.6000 l
1.0591 0.6003 l
1.0591 0.6007 l
1.0590 0.6010 l
1.0589 0.6014 l
1.0588 0.6017 l
1.0587 0.6021 l
1.0586 0.6024 l
1.0585 0.6028 l
1.0584 0.6031 l
1.0583 0.6035 l
1.0582 0.6038 l
1.0581 0.6042 l
1.0580 0.6046 l
1.0579 0.6049 l
1.0579 0.6053 l
1.0578 0.6056 l
1.0577 0.6060 l
1.0576 0.6063 l
1.0575 0.6067 l
1.0574 0.6070 l
1.0573 0.6074 l
1.0572 0.6077 l
1.0571 0.6081 l
1.0570 0.6084 l
1.0569 0.6088 l
1.0568 0.6091 l
1.0567 0.6095 l
1.0566 0.6098 l
1.0565 0.6102 l
1.0564 0.6105 l
1.0563 0.6109 l
1.0562 0.6112 l
1.0561 0.6116 l
1.0560 0.6119 l
1.0559 0.6123 l
1.0558 0.6126 l
1.0557 0.6130 l
1.0556 0.6133 l
1.0555 0.6137 l
1.0554 0.6140 l
1.0553 0.6143 l
1.0552 0.6147 l
1.0551 0.6150 l
1.0550 0.6154 l
1.0549 0.6157 l
1.0548 0.6161 l
1.0547 0.6164 l
1.0546 0.6168 l
1.0545 0.6171 l
1.0544 0.6175 l
1.0543 0.6178 l
1.0542 0.6182 l
1.0541 0.6185 l
1.0540 0.6189 l
1.0539 0.6192 l
1.0538 0.6196 l
1.0536 0.6199 l
1.0535 0.6203 l
1.0534 0.6206 l
1.0533 0.6210 l
1.0532 0.6213 l
1.0531 0.6217 l
1.0530 0.6220 l
1.0529 0.6223 l
1.0528 0.6227 l
1.0527 0.6230 l
1.0526 0.6234 l
1.0525 0.6237 l
1.0524 0.6241 l
1.0522 0.6244 l
1.0521 0.6248 l
1.0520 0.6251 l
1.0519 0.6255 l
1.0518 0.6258 l
1.0517 0.6262 l
1.0516 0.6265 l
1.0515 0.6268 l
1.0514 0.6272 l
1.0512 0.6275 l
1.0511 0.6279 l
1.0510 0.6282 l
1.0509 0.6286 l
1.0508 0.6289 l
1.0507 0.6293 l
1.0506 0.6296 l
1.0505 0.6300 l
1.0503 0.6303 l
1.0502 0.6306 l
1.0501 0.6310 l
1.0500 0.6313 l
1.0499 0.6317 l
1.0498 0.6320 l
1.0496 0.6324 l
1.0495 0.6327 l
1.0494 0.6331 l
1.0493 0.6334 l
1.0492 0.6337 l
1.0491 0.6341 l
1.0490 0.6344 l
1.0488 0.6348 l
1.0487 0.6351 l
1.0486 0.6355 l
1.0485 0.6358 l
1.0484 0.6362 l
1.0482 0.6365 l
1.0481 0.6368 l
1.0480 0.6372 l
1.0479 0.6375 l
1.0478 0.6379 l
1.0476 0.6382 l
1.0475 0.6386 l
1.0474 0.6389 l
1.0473 0.6392 l
1.0472 0.6396 l
1.0470 0.6399 l
1.0469 0.6403 l
1.0468 0.6406 l
1.0467 0.6410 l
1.0465 0.6413 l
1.0464 0.6416 l
1.0463 0.6420 l
1.0462 0.6423 l
1.0461 0.6427 l
1.0459 0.6430 l
1.0458 0.6433 l
1.0457 0.6437 l
1.0456 0.6440 l
1.0454 0.6444 l
1.0453 0.6447 l
1.0452 0.6451 l
1.0451 0.6454 l
1.0449 0.6457 l
1.0448 0.6461 l
1.0447 0.6464 l
1.0446 0.6468 l
1.0444 0.6471 l
1.0443 0.6474 l
1.0442 0.6478 l
1.0440 0.6481 l
1.0439 0.6485 l
1.0438 0.6488 l
1.0437 0.6491 l
1.0435 0.6495 l
1.0434 0.6498 l
1.0433 0.6502 l
1.0431 0.6505 l
1.0430 0.6508 l
1.0429 0.6512 l
1.0428 0.6515 l
1.0426 0.6519 l
1.0425 0.6522 l
1.0424 0.6525 l
1.0422 0.6529 l
1.0421 0.6532 l
1.0420 0.6536 l
1.0418 0.6539 l
1.0417 0.6542 l
1.0416 0.6546 l
1.0414 0.6549 l
1.0413 0.6553 l
1.0412 0.6556 l
1.0410 0.6559 l
1.0409 0.6563 l
1.0408 0.6566 l
1.0406 0.6570 l
1.0405 0.6573 l
1.0404 0.6576 l
1.0402 0.6580 l
1.0401 0.6583 l
1.0400 0.6586 l
1.0398 0.6590 l
1.0397 0.6593 l
1.0396 0.6597 l
1.0394 0.6600 l
1.0393 0.6603 l
1.0392 0.6607 l
1.0390 0.6610 l
1.0389 0.6613 l
1.0387 0.6617 l
1.0386 0.6620 l
1.0385 0.6624 l
1.0383 0.6627 l
1.0382 0.6630 l
1.0381 0.6634 l
1.0379 0.6637 l
1.0378 0.6640 l
1.0376 0.6644 l
1.0375 0.6647 l
1.0374 0.6651 l
1.0372 0.6654 l
1.0371 0.6657 l
1.0369 0.6661 l
1.0368 0.6664 l
1.0367 0.6667 l
1.0365 0.6671 l
1.0364 0.6674 l
1.0362 0.6677 l
1.0361 0.6681 l
1.0359 0.6684 l
1.0358 0.6688 l
1.0357 0.6691 l
1.0355 0.6694 l
1.0354 0.6698 l
1.0352 0.6701 l
1.0351 0.6704 l
1.0349 0.6708 l
1.0348 0.6711 l
1.0347 0.6714 l
1.0345 0.6718 l
1.0344 0.6721 l
1.0342 0.6724 l
1.0341 0.6728 l
1.0339 0.6731 l
1.0338 0.6734 l
1.0336 0.6738 l
1.0335 0.6741 l
1.0334 0.6745 l
1.0332 0.6748 l
1.0331 0.6751 l
1.0329 0.6755 l
1.0328 0.6758 l
1.0326 0.6761 l
1.0325 0.6765 l
1.0323 0.6768 l
1.0322 0.6771 l
1.0320 0.6775 l
1.0319 0.6778 l
1.0317 0.6781 l
1.0316 0.6785 l
1.0314 0.6788 l
1.0313 0.6791 l
1.0311 0.6795 l
1.0310 0.6798 l
1.0308 0.6801 l
1.0307 0.6805 l
1.0305 0.6808 l
1.0304 0.6811 l
1.0302 0.6815 l
1.0301 0.6818 l
1.0299 0.6821 l
1.0298 0.6825 l
1.0296 0.6828 l
1.0295 0.6831 l
1.0293 0.6835 l
1.0292 0.6838 l
1.0290 0.6841 l
1.0289 0.6845 l
1.0287 0.6848 l
1.0286 0.6851 l
1.0284 0.6854 l
1.0283 0.6858 l
1.0281 0.6861 l
1.0279 0.6864 l
1.0278 0.6868 l
1.0276 0.6871 l
1.0275 0.6874 l
1.0273 0.6878 l
1.0272 0.6881 l
1.0270 0.6884 l
1.0269 0.6888 l
1.0267 0.6891 l
1.0265 0.6894 l
1.0264 0.6898 l
1.0262 0.6901 l
1.0261 0.6904 l
1.0259 0.6908 l
1.0258 0.6911 l
1.0256 0.6914 l
1.0254 0.6917 l
1.0253 0.6921 l
1.0251 0.6924 l
1.0250 0.6927 l
1.0248 0.6931 l
1.0247 0.6934 l
1.0245 0.6937 l
1.0243 0.6941 l
1.0242 0.6944 l
1.0240 0.6947 l
1.0239 0.6950 l
1.0237 0.6954 l
1.0235 0.6957 l
1.0234 0.6960 l
1.0232 0.6964 l
1.0231 0.6967 l
1.0229 0.6970 l
1.0227 0.6974 l
1.0226 0.6977 l
1.0224 0.6980 l
1.0223 0.6983 l
1.0221 0.6987 l
1.0219 0.6990 l
1.0218 0.6993 l
1.0216 0.6997 l
1.0214 0.7000 l
1.0213 0.7003 l
1.0211 0.7006 l
1.0210 0.7010 l
1.0208 0.7013 l
1.0206 0.7016 l
1.0205 0.7020 l
1.0203 0.7023 l
1.0201 0.7026 l
1.0200 0.7029 l
1.0198 0.7033 l
1.0196 0.7036 l
1.0195 0.7039 l
1.0193 0.7042 l
1.0191 0.7046 l
1.0190 0.7049 l
1.0188 0.7052 l
1.0186 0.7056 l
1.0185 0.7059 l
1.0183 0.7062 l
1.0181 0.7065 l
1.0180 0.7069 l
1.0178 0.7072 l
1.0176 0.7075 l
1.0175 0.7078 l
1.0173 0.7082 l
1.0171 0.7085 l
1.0170 0.7088 l
1.0168 0.7092 l
1.0166 0.7095 l
1.0165 0.7098 l
s
[] 0 SD
0.0015 SLW
n
0.1500 0.1500 m
1.1500 0.1500 l
s
n
0.1500 0.8500 m
1.1500 0.8500 l
s
n
0.1500 0.1500 m
0.1500 0.1600 l
s
n
0.1500 0.8500 m
0.1500 0.8400 l
s
n
0.3500 0.1500 m
0.3500 0.1600 l
s
n
0.3500 0.8500 m
0.3500 0.8400 l
s
n
0.5500 0.1500 m
0.5500 0.1600 l
s
n
0.5500 0.8500 m
0.5500 0.8400 l
s
n
0.7500 0.1500 m
0.7500 0.1600 l
s
n
0.7500 0.8500 m
0.7500 0.8400 l
s
n
0.9500 0.1500 m
0.9500 0.1600 l
s
n
0.9500 0.8500 m
0.9500 0.8400 l
s
n
1.1500 0.1500 m
1.1500 0.1600 l
s
n
1.1500 0.8500 m
1.1500 0.8400 l
s
n
0.2500 0.1500 m
0.2500 0.1700 l
s
n
0.2500 0.8500 m
0.2500 0.8300 l
s
n
0.4500 0.1500 m
0.4500 0.1700 l
s
n
0.4500 0.8500 m
0.4500 0.8300 l
s
n
0.6500 0.1500 m
0.6500 0.1700 l
s
n
0.6500 0.8500 m
0.6500 0.8300 l
s
n
0.8500 0.1500 m
0.8500 0.1700 l
s
n
0.8500 0.8500 m
0.8500 0.8300 l
s
n
1.0500 0.1500 m
1.0500 0.1700 l
s
n
1.0500 0.8500 m
1.0500 0.8300 l
s
/Times-Roman findfont
dup length dict begin
 {1 index /FID ne {def} {pop pop} ifelse} forall
 /Encoding DefEncoding def
 currentdict
end
/Font34 exch definefont pop
/Font34 FFSF
0.2386 0.1212 m
GS
[0.0280 0.0000 0.0000 0.0280 0 0] CC
(-4) show
GR
/Font34 FFSF
0.4386 0.1212 m
GS
[0.0280 0.0000 0.0000 0.0280 0 0] CC
(-2) show
GR
/Font34 FFSF
0.6433 0.1212 m
GS
[0.0280 0.0000 0.0000 0.0280 0 0] CC
(0) show
GR
/Font34 FFSF
0.8433 0.1212 m
GS
[0.0280 0.0000 0.0000 0.0280 0 0] CC
(2) show
GR
/Font34 FFSF
1.0433 0.1212 m
GS
[0.0280 0.0000 0.0000 0.0280 0 0] CC
(4) show
GR
/Font34 FFSF
0.6057 0.0825 m
GS
[0.0420 0.0000 0.0000 0.0420 0 0] CC
(X\(m\)) show
GR
n
0.1500 0.1500 m
0.1500 0.8500 l
s
n
1.1500 0.1500 m
1.1500 0.8500 l
s
n
0.1500 0.2375 m
0.1600 0.2375 l
s
n
1.1500 0.2375 m
1.1400 0.2375 l
s
n
0.1500 0.4125 m
0.1600 0.4125 l
s
n
1.1500 0.4125 m
1.1400 0.4125 l
s
n
0.1500 0.5875 m
0.1600 0.5875 l
s
n
1.1500 0.5875 m
1.1400 0.5875 l
s
n
0.1500 0.7625 m
0.1600 0.7625 l
s
n
1.1500 0.7625 m
1.1400 0.7625 l
s
n
0.1500 0.1500 m
0.1700 0.1500 l
s
n
1.1500 0.1500 m
1.1300 0.1500 l
s
n
0.1500 0.3250 m
0.1700 0.3250 l
s
n
1.1500 0.3250 m
1.1300 0.3250 l
s
n
0.1500 0.5000 m
0.1700 0.5000 l
s
n
1.1500 0.5000 m
1.1300 0.5000 l
s
n
0.1500 0.6750 m
0.1700 0.6750 l
s
n
1.1500 0.6750 m
1.1300 0.6750 l
s
n
0.1500 0.8500 m
0.1700 0.8500 l
s
n
1.1500 0.8500 m
1.1300 0.8500 l
s
/Font34 FFSF
0.1267 0.1408 m
GS
[0.0280 0.0000 0.0000 0.0280 0 0] CC
(0) show
GR
/Font34 FFSF
0.1125 0.3158 m
GS
[0.0280 0.0000 0.0000 0.0280 0 0] CC
(10) show
GR
/Font34 FFSF
0.1125 0.4908 m
GS
[0.0280 0.0000 0.0000 0.0280 0 0] CC
(20) show
GR
/Font34 FFSF
0.1125 0.6658 m
GS
[0.0280 0.0000 0.0000 0.0280 0 0] CC
(30) show
GR
/Font34 FFSF
0.1125 0.8408 m
GS
[0.0280 0.0000 0.0000 0.0280 0 0] CC
(40) show
GR
/Font34 FFSF
0.0951 0.4557 m
GS
[0.0000 0.0420 -0.0420 0.0000 0 0] CC
(Y\(m\)) show
GR
n
0.1500 0.1500 m
0.1500 0.8500 l
1.1500 0.8500 l
1.1500 0.1500 l
0.1500 0.1500 l
c
s
n
1.0343 0.7120 m
1.0343 0.7512 l
0.2642 0.7512 l
0.2642 0.7120 l
c
GS
Color0 SRGB
fill
GR
[/Pattern /DeviceRGB] SCS
Color1 Pattern18 SC
fill
[/DeviceRGB] SCS
Color1 SC
[] 0 SD
0.0030 SLW
n
1.0343 0.7120 m
1.0343 0.7512 l
0.2642 0.7512 l
0.2642 0.7120 l
1.0343 0.7120 l
c
s
/Font34 FFSF
0.6039 0.7652 m
GS
[0.0417 0.0000 0.0000 0.0417 0 0] CC
(Cancha) show
GR
/Font34 FFSF
0.3702 0.9206 m
GS
[0.0490 0.0000 0.0000 0.0490 0 0] CC
(Trayectoria del tiro \(Y vs X\)) show
GR
%%Trailer
%%BoundingBox: 39 44 706 585
%%DocumentNeededResources: font Times-Roman
%%EOF
