%!PS-Adobe-3.0 EPSF-3.0
%%BoundingBox: (atend)
%%LanguageLevel: 2
%%Creator: Grace-5.1.24
%%CreationDate: Tue Apr 12 10:09:24 2016
%%DocumentData: Clean8Bit
%%Orientation: Portrait
%%Title: /home/juanchoflo/Escritorio/UNAL2016-1/SimulacionSistemasFisicos/FuerzaDeMagnus/TrayectoriaZvsX.agr
%%For: juanchoflo
%%DocumentNeededResources: (atend)
%%EndComments
%%BeginProlog
/m {moveto} def
/l {lineto} def
/s {stroke} def
/n {newpath} def
/c {closepath} def
/RL {rlineto} def
/SLW {setlinewidth} def
/GS {gsave} def
/GR {grestore} def
/SC {setcolor} def
/SGRY {setgray} def
/SRGB {setrgbcolor} def
/SD {setdash} def
/SLC {setlinecap} def
/SLJ {setlinejoin} def
/SCS {setcolorspace} def
/FFSF {findfont setfont} def
/CC {concat} def
/PXL {n m 0 0 RL s} def
/Color0 {1.0000 1.0000 1.0000} def
/Color1 {0.0000 0.0000 0.0000} def
/Color2 {1.0000 0.0000 0.0000} def
/Color3 {0.0000 1.0000 0.0000} def
/Color4 {0.0000 0.0000 1.0000} def
/Color5 {1.0000 1.0000 0.0000} def
/Color6 {0.7373 0.5608 0.5608} def
/Color7 {0.8627 0.8627 0.8627} def
/Color8 {0.5804 0.0000 0.8275} def
/Color9 {0.0000 1.0000 1.0000} def
/Color10 {1.0000 0.0000 1.0000} def
/Color11 {1.0000 0.6471 0.0000} def
/Color12 {0.4471 0.1294 0.7373} def
/Color13 {0.4039 0.0275 0.2824} def
/Color14 {0.2510 0.8784 0.8157} def
/Color15 {0.0000 0.5451 0.0000} def
/Color16 {0.7529 0.7529 0.7529} def
/Color17 {0.5059 0.5059 0.5059} def
/Color18 {0.2588 0.2588 0.2588} def
/PTRN {
 /pat_bits exch def 
 <<
  /PaintType 2
  /PatternType 1 /TilingType 1
  /BBox[0 0 16 16]
  /XStep 16 /YStep 16
  /PaintProc {
   pop
   16 16 true [-1 0 0 -1 16 16] pat_bits imagemask
  }
 >>
 [0.0016 0 0 0.0016 0 0]
 makepattern
} def
/Pattern0 {<0000000000000000000000000000000000000000000000000000000000000000> PTRN} bind def
/Pattern1 {<ffffffffffffffffffffffffffffffffffffffffffffffffffffffffffffffff> PTRN} bind def
/Pattern2 {<eeeeffffbbbbffffeeeeffffbbbbffffeeeeffffbbbbffffeeeeffffbbbbffff> PTRN} bind def
/Pattern3 {<eeeebbbbeeeebbbbeeeebbbbeeeebbbbeeeebbbbeeeebbbbeeeebbbbeeeebbbb> PTRN} bind def
/Pattern4 {<5555aaaa5555aaaa5555aaaa5555aaaa5555aaaa5555aaaa5555aaaa5555aaaa> PTRN} bind def
/Pattern5 {<1111444411114444111144441111444411114444111144441111444411114444> PTRN} bind def
/Pattern6 {<1111000044440000111100004444000011110000444400001111000044440000> PTRN} bind def
/Pattern7 {<1010000000000000010100000000000010100000000000000101000000000000> PTRN} bind def
/Pattern8 {<0000000000000000000000000000000000000000000000000000000000000000> PTRN} bind def
/Pattern9 {<1e1e0f0f8787c3c3e1e1f0f078783c3c1e1e0f0f8787c3c3e1e1f0f078783c3c> PTRN} bind def
/Pattern10 {<7878f0f0e1e1c3c387870f0f1e1e3c3c7878f0f0e1e1c3c387870f0f1e1e3c3c> PTRN} bind def
/Pattern11 {<3333333333333333333333333333333333333333333333333333333333333333> PTRN} bind def
/Pattern12 {<ffffffff00000000ffffffff00000000ffffffff00000000ffffffff00000000> PTRN} bind def
/Pattern13 {<8181424224241818181824244242818181814242242418181818242442428181> PTRN} bind def
/Pattern14 {<8080404020201010080804040202010180804040202010100808040402020101> PTRN} bind def
/Pattern15 {<0101020204040808101020204040808001010202040408081010202040408080> PTRN} bind def
/Pattern16 {<2222222222222222222222222222222222222222222222222222222222222222> PTRN} bind def
/Pattern17 {<0000ffff000000000000ffff000000000000ffff000000000000ffff00000000> PTRN} bind def
/Pattern18 {<2222ffff222222222222ffff222222222222ffff222222222222ffff22222222> PTRN} bind def
/Pattern19 {<ffffffff33333333ffffffff33333333ffffffff33333333ffffffff33333333> PTRN} bind def
/Pattern20 {<0f0f0f0f0f0f0f0ff0f0f0f0f0f0f0f00f0f0f0f0f0f0f0ff0f0f0f0f0f0f0f0> PTRN} bind def
/Pattern21 {<ff00ff00ff00ff00ff00ff00ff00ff0000ff00ff00ff00ff00ff00ff00ff00ff> PTRN} bind def
/Pattern22 {<8001800180018001800180018001ffffffff8001800180018001800180018001> PTRN} bind def
/Pattern23 {<c003c003c003c003c003c003ffffffffffffffffc003c003c003c003c003c003> PTRN} bind def
/Pattern24 {<040404040404ffff404040404040ffff040404040404ffff404040404040ffff> PTRN} bind def
/Pattern25 {<180018001800180018001800ffffffff001800180018001800180018ffffffff> PTRN} bind def
/Pattern26 {<1111b8b87c7c3a3a1111a3a3c7c78b8b1111b8b87c7c3a3a1111a3a3c7c78b8b> PTRN} bind def
/Pattern27 {<101010102828c7c70101010182827c7c101010102828c7c70101010182827c7c> PTRN} bind def
/Pattern28 {<1c1c121211112121c1c12121111112121c1c121211112121c1c1212111111212> PTRN} bind def
/Pattern29 {<3e3e414180808080e3e31414080808083e3e414180808080e3e3141408080808> PTRN} bind def
/Pattern30 {<4848888884848383848488884848383848488888848483838484888848483838> PTRN} bind def
/Pattern31 {<03030404080808080c0c12122121c0c003030404080808080c0c12122121c0c0> PTRN} bind def
/ellipsedict 8 dict def
ellipsedict /mtrx matrix put
/EARC {
 ellipsedict begin
  /endangle exch def
  /startangle exch def
  /yrad exch def
  /xrad exch def
  /y exch def
  /x exch def
  /savematrix mtrx currentmatrix def
  x y translate
  xrad yrad scale
  0 0 1 startangle endangle arc
  savematrix setmatrix
 end
} def
/TL {
  /kcomp exch def
  /linewidth exch def
  /offset exch def
  GS
  0 offset rmoveto
  linewidth SLW
  dup stringwidth exch kcomp add exch RL s
  GR
} def
/KINIT
{
 /kvector exch def
 /kid 0 def
} def
/KPROC
{
 pop pop
 kvector kid get
 0 rmoveto
 /kid 1 kid add def
} def
/DefEncoding [
 /.notdef
 /.notdef
 /.notdef
 /.notdef
 /.notdef
 /.notdef
 /.notdef
 /.notdef
 /.notdef
 /.notdef
 /.notdef
 /.notdef
 /.notdef
 /.notdef
 /.notdef
 /.notdef
 /.notdef
 /.notdef
 /.notdef
 /.notdef
 /.notdef
 /.notdef
 /.notdef
 /.notdef
 /.notdef
 /.notdef
 /.notdef
 /.notdef
 /.notdef
 /.notdef
 /.notdef
 /.notdef
 /space
 /exclam
 /quotedbl
 /numbersign
 /dollar
 /percent
 /ampersand
 /quoteright
 /parenleft
 /parenright
 /asterisk
 /plus
 /comma
 /hyphen
 /period
 /slash
 /zero
 /one
 /two
 /three
 /four
 /five
 /six
 /seven
 /eight
 /nine
 /colon
 /semicolon
 /less
 /equal
 /greater
 /question
 /at
 /A
 /B
 /C
 /D
 /E
 /F
 /G
 /H
 /I
 /J
 /K
 /L
 /M
 /N
 /O
 /P
 /Q
 /R
 /S
 /T
 /U
 /V
 /W
 /X
 /Y
 /Z
 /bracketleft
 /backslash
 /bracketright
 /asciicircum
 /underscore
 /grave
 /a
 /b
 /c
 /d
 /e
 /f
 /g
 /h
 /i
 /j
 /k
 /l
 /m
 /n
 /o
 /p
 /q
 /r
 /s
 /t
 /u
 /v
 /w
 /x
 /y
 /z
 /braceleft
 /bar
 /braceright
 /asciitilde
 /.notdef
 /.notdef
 /.notdef
 /.notdef
 /.notdef
 /.notdef
 /.notdef
 /.notdef
 /.notdef
 /.notdef
 /.notdef
 /.notdef
 /.notdef
 /.notdef
 /.notdef
 /.notdef
 /.notdef
 /.notdef
 /.notdef
 /.notdef
 /.notdef
 /.notdef
 /.notdef
 /.notdef
 /.notdef
 /.notdef
 /.notdef
 /.notdef
 /.notdef
 /.notdef
 /.notdef
 /.notdef
 /.notdef
 /space
 /exclamdown
 /cent
 /sterling
 /currency
 /yen
 /brokenbar
 /section
 /dieresis
 /copyright
 /ordfeminine
 /guillemotleft
 /logicalnot
 /hyphen
 /registered
 /macron
 /degree
 /plusminus
 /twosuperior
 /threesuperior
 /acute
 /mu
 /paragraph
 /periodcentered
 /cedilla
 /onesuperior
 /ordmasculine
 /guillemotright
 /onequarter
 /onehalf
 /threequarters
 /questiondown
 /Agrave
 /Aacute
 /Acircumflex
 /Atilde
 /Adieresis
 /Aring
 /AE
 /Ccedilla
 /Egrave
 /Eacute
 /Ecircumflex
 /Edieresis
 /Igrave
 /Iacute
 /Icircumflex
 /Idieresis
 /Eth
 /Ntilde
 /Ograve
 /Oacute
 /Ocircumflex
 /Otilde
 /Odieresis
 /multiply
 /Oslash
 /Ugrave
 /Uacute
 /Ucircumflex
 /Udieresis
 /Yacute
 /Thorn
 /germandbls
 /agrave
 /aacute
 /acircumflex
 /atilde
 /adieresis
 /aring
 /ae
 /ccedilla
 /egrave
 /eacute
 /ecircumflex
 /edieresis
 /igrave
 /iacute
 /icircumflex
 /idieresis
 /eth
 /ntilde
 /ograve
 /oacute
 /ocircumflex
 /otilde
 /odieresis
 /divide
 /oslash
 /ugrave
 /uacute
 /ucircumflex
 /udieresis
 /yacute
 /thorn
 /ydieresis
] def
%%EndProlog
%%BeginSetup
%%EndSetup
612.00 612.00 scale
n
0.0000 0.0000 m
0.0000 1.0000 l
1.2941 1.0000 l
1.2941 0.0000 l
c
[/DeviceRGB] SCS
Color0 SC
fill
[/DeviceRGB] SCS
Color2 SC
[] 0 SD
0.0045 SLW
0 SLC
0 SLJ
n
0.8500 0.1500 m
0.8507 0.1516 l
0.8513 0.1531 l
0.8520 0.1547 l
0.8527 0.1562 l
0.8533 0.1577 l
0.8540 0.1593 l
0.8546 0.1608 l
0.8553 0.1624 l
0.8560 0.1639 l
0.8566 0.1654 l
0.8573 0.1670 l
0.8579 0.1685 l
0.8586 0.1700 l
0.8592 0.1715 l
0.8599 0.1731 l
0.8605 0.1746 l
0.8612 0.1761 l
0.8618 0.1776 l
0.8624 0.1791 l
0.8631 0.1806 l
0.8637 0.1821 l
0.8644 0.1836 l
0.8650 0.1851 l
0.8656 0.1866 l
0.8663 0.1881 l
0.8669 0.1896 l
0.8675 0.1911 l
0.8682 0.1926 l
0.8688 0.1941 l
0.8694 0.1956 l
0.8701 0.1970 l
0.8707 0.1985 l
0.8713 0.2000 l
0.8719 0.2015 l
0.8725 0.2029 l
0.8732 0.2044 l
0.8738 0.2059 l
0.8744 0.2073 l
0.8750 0.2088 l
0.8756 0.2103 l
0.8762 0.2117 l
0.8768 0.2132 l
0.8775 0.2146 l
0.8781 0.2161 l
0.8787 0.2175 l
0.8793 0.2190 l
0.8799 0.2204 l
0.8805 0.2219 l
0.8811 0.2233 l
0.8817 0.2247 l
0.8823 0.2262 l
0.8829 0.2276 l
0.8835 0.2290 l
0.8841 0.2304 l
0.8847 0.2319 l
0.8853 0.2333 l
0.8859 0.2347 l
0.8864 0.2361 l
0.8870 0.2375 l
0.8876 0.2389 l
0.8882 0.2404 l
0.8888 0.2418 l
0.8894 0.2432 l
0.8900 0.2446 l
0.8905 0.2460 l
0.8911 0.2474 l
0.8917 0.2488 l
0.8923 0.2502 l
0.8928 0.2515 l
0.8934 0.2529 l
0.8940 0.2543 l
0.8946 0.2557 l
0.8951 0.2571 l
0.8957 0.2585 l
0.8963 0.2598 l
0.8968 0.2612 l
0.8974 0.2626 l
0.8980 0.2640 l
0.8985 0.2653 l
0.8991 0.2667 l
0.8996 0.2681 l
0.9002 0.2694 l
0.9008 0.2708 l
0.9013 0.2721 l
0.9019 0.2735 l
0.9024 0.2748 l
0.9030 0.2762 l
0.9035 0.2775 l
0.9041 0.2789 l
0.9046 0.2802 l
0.9052 0.2815 l
0.9057 0.2829 l
0.9063 0.2842 l
0.9068 0.2856 l
0.9074 0.2869 l
0.9079 0.2882 l
0.9084 0.2895 l
0.9090 0.2909 l
0.9095 0.2922 l
0.9101 0.2935 l
0.9106 0.2948 l
0.9111 0.2961 l
0.9117 0.2974 l
0.9122 0.2987 l
0.9127 0.3001 l
0.9133 0.3014 l
0.9138 0.3027 l
0.9143 0.3040 l
0.9148 0.3053 l
0.9154 0.3066 l
0.9159 0.3079 l
0.9164 0.3091 l
0.9169 0.3104 l
0.9174 0.3117 l
0.9180 0.3130 l
0.9185 0.3143 l
0.9190 0.3156 l
0.9195 0.3168 l
0.9200 0.3181 l
0.9205 0.3194 l
0.9210 0.3207 l
0.9216 0.3219 l
0.9221 0.3232 l
0.9226 0.3245 l
0.9231 0.3257 l
0.9236 0.3270 l
0.9241 0.3282 l
0.9246 0.3295 l
0.9251 0.3307 l
0.9256 0.3320 l
0.9261 0.3332 l
0.9266 0.3345 l
0.9271 0.3357 l
0.9276 0.3370 l
0.9281 0.3382 l
0.9286 0.3394 l
0.9291 0.3407 l
0.9296 0.3419 l
0.9301 0.3431 l
0.9305 0.3444 l
0.9310 0.3456 l
0.9315 0.3468 l
0.9320 0.3480 l
0.9325 0.3493 l
0.9330 0.3505 l
0.9335 0.3517 l
0.9339 0.3529 l
0.9344 0.3541 l
0.9349 0.3553 l
0.9354 0.3565 l
0.9358 0.3577 l
0.9363 0.3589 l
0.9368 0.3601 l
0.9373 0.3613 l
0.9377 0.3625 l
0.9382 0.3637 l
0.9387 0.3649 l
0.9392 0.3661 l
0.9396 0.3673 l
0.9401 0.3685 l
0.9406 0.3696 l
0.9410 0.3708 l
0.9415 0.3720 l
0.9419 0.3732 l
0.9424 0.3743 l
0.9429 0.3755 l
0.9433 0.3767 l
0.9438 0.3778 l
0.9442 0.3790 l
0.9447 0.3802 l
0.9452 0.3813 l
0.9456 0.3825 l
0.9461 0.3836 l
0.9465 0.3848 l
0.9470 0.3859 l
0.9474 0.3871 l
0.9479 0.3882 l
0.9483 0.3894 l
0.9488 0.3905 l
0.9492 0.3917 l
0.9496 0.3928 l
0.9501 0.3939 l
0.9505 0.3951 l
0.9510 0.3962 l
0.9514 0.3973 l
0.9518 0.3984 l
0.9523 0.3996 l
0.9527 0.4007 l
0.9532 0.4018 l
0.9536 0.4029 l
0.9540 0.4040 l
0.9545 0.4052 l
0.9549 0.4063 l
0.9553 0.4074 l
0.9557 0.4085 l
0.9562 0.4096 l
0.9566 0.4107 l
0.9570 0.4118 l
0.9574 0.4129 l
0.9579 0.4140 l
0.9583 0.4151 l
0.9587 0.4162 l
0.9591 0.4173 l
0.9596 0.4183 l
0.9600 0.4194 l
0.9604 0.4205 l
0.9608 0.4216 l
0.9612 0.4227 l
0.9616 0.4238 l
0.9621 0.4248 l
0.9625 0.4259 l
0.9629 0.4270 l
0.9633 0.4280 l
0.9637 0.4291 l
0.9641 0.4302 l
0.9645 0.4312 l
0.9649 0.4323 l
0.9653 0.4333 l
0.9657 0.4344 l
0.9661 0.4355 l
0.9665 0.4365 l
0.9669 0.4376 l
0.9673 0.4386 l
0.9677 0.4396 l
0.9681 0.4407 l
0.9685 0.4417 l
0.9689 0.4428 l
0.9693 0.4438 l
0.9697 0.4448 l
0.9701 0.4459 l
0.9705 0.4469 l
0.9709 0.4479 l
0.9713 0.4489 l
0.9717 0.4500 l
0.9721 0.4510 l
0.9725 0.4520 l
0.9728 0.4530 l
0.9732 0.4540 l
0.9736 0.4551 l
0.9740 0.4561 l
0.9744 0.4571 l
0.9748 0.4581 l
0.9751 0.4591 l
0.9755 0.4601 l
0.9759 0.4611 l
0.9763 0.4621 l
0.9766 0.4631 l
0.9770 0.4641 l
0.9774 0.4651 l
0.9778 0.4661 l
0.9781 0.4670 l
0.9785 0.4680 l
0.9789 0.4690 l
0.9793 0.4700 l
0.9796 0.4710 l
0.9800 0.4719 l
0.9804 0.4729 l
0.9807 0.4739 l
0.9811 0.4749 l
0.9815 0.4758 l
0.9818 0.4768 l
0.9822 0.4778 l
0.9825 0.4787 l
0.9829 0.4797 l
0.9833 0.4806 l
0.9836 0.4816 l
0.9840 0.4825 l
0.9843 0.4835 l
0.9847 0.4844 l
0.9851 0.4854 l
0.9854 0.4863 l
0.9858 0.4873 l
0.9861 0.4882 l
0.9865 0.4892 l
0.9868 0.4901 l
0.9872 0.4910 l
0.9875 0.4920 l
0.9879 0.4929 l
0.9882 0.4938 l
0.9886 0.4948 l
0.9889 0.4957 l
0.9892 0.4966 l
0.9896 0.4975 l
0.9899 0.4984 l
0.9903 0.4994 l
0.9906 0.5003 l
0.9909 0.5012 l
0.9913 0.5021 l
0.9916 0.5030 l
0.9920 0.5039 l
0.9923 0.5048 l
0.9926 0.5057 l
0.9930 0.5066 l
0.9933 0.5075 l
0.9936 0.5084 l
0.9940 0.5093 l
0.9943 0.5102 l
0.9946 0.5111 l
0.9949 0.5120 l
0.9953 0.5129 l
0.9956 0.5137 l
0.9959 0.5146 l
0.9963 0.5155 l
0.9966 0.5164 l
0.9969 0.5173 l
0.9972 0.5181 l
0.9975 0.5190 l
0.9979 0.5199 l
0.9982 0.5207 l
0.9985 0.5216 l
0.9988 0.5225 l
0.9991 0.5233 l
0.9995 0.5242 l
0.9998 0.5250 l
1.0001 0.5259 l
1.0004 0.5268 l
1.0007 0.5276 l
1.0010 0.5285 l
1.0013 0.5293 l
1.0016 0.5301 l
1.0020 0.5310 l
1.0023 0.5318 l
1.0026 0.5327 l
1.0029 0.5335 l
1.0032 0.5343 l
1.0035 0.5352 l
1.0038 0.5360 l
1.0041 0.5368 l
1.0044 0.5377 l
1.0047 0.5385 l
1.0050 0.5393 l
1.0053 0.5401 l
1.0056 0.5409 l
1.0059 0.5418 l
1.0062 0.5426 l
1.0065 0.5434 l
1.0068 0.5442 l
1.0071 0.5450 l
1.0074 0.5458 l
1.0077 0.5466 l
1.0080 0.5474 l
1.0083 0.5482 l
1.0085 0.5490 l
1.0088 0.5498 l
1.0091 0.5506 l
1.0094 0.5514 l
1.0097 0.5522 l
1.0100 0.5530 l
1.0103 0.5538 l
1.0106 0.5546 l
1.0108 0.5553 l
1.0111 0.5561 l
1.0114 0.5569 l
1.0117 0.5577 l
1.0120 0.5585 l
1.0122 0.5592 l
1.0125 0.5600 l
1.0128 0.5608 l
1.0131 0.5615 l
1.0134 0.5623 l
1.0136 0.5631 l
1.0139 0.5638 l
1.0142 0.5646 l
1.0145 0.5653 l
1.0147 0.5661 l
1.0150 0.5668 l
1.0153 0.5676 l
1.0155 0.5683 l
1.0158 0.5691 l
1.0161 0.5698 l
1.0164 0.5706 l
1.0166 0.5713 l
1.0169 0.5721 l
1.0172 0.5728 l
1.0174 0.5735 l
1.0177 0.5743 l
1.0179 0.5750 l
1.0182 0.5757 l
1.0185 0.5764 l
1.0187 0.5772 l
1.0190 0.5779 l
1.0192 0.5786 l
1.0195 0.5793 l
1.0198 0.5801 l
1.0200 0.5808 l
1.0203 0.5815 l
1.0205 0.5822 l
1.0208 0.5829 l
1.0210 0.5836 l
1.0213 0.5843 l
1.0215 0.5850 l
1.0218 0.5857 l
1.0220 0.5864 l
1.0223 0.5871 l
1.0225 0.5878 l
1.0228 0.5885 l
1.0230 0.5892 l
1.0233 0.5899 l
1.0235 0.5906 l
1.0238 0.5913 l
1.0240 0.5919 l
1.0243 0.5926 l
1.0245 0.5933 l
1.0248 0.5940 l
1.0250 0.5947 l
1.0252 0.5953 l
1.0255 0.5960 l
1.0257 0.5967 l
1.0260 0.5974 l
1.0262 0.5980 l
1.0264 0.5987 l
1.0267 0.5993 l
1.0269 0.6000 l
1.0271 0.6007 l
1.0274 0.6013 l
1.0276 0.6020 l
1.0278 0.6026 l
1.0281 0.6033 l
1.0283 0.6039 l
1.0285 0.6046 l
1.0288 0.6052 l
1.0290 0.6059 l
1.0292 0.6065 l
1.0294 0.6071 l
1.0297 0.6078 l
1.0299 0.6084 l
1.0301 0.6090 l
1.0303 0.6097 l
1.0306 0.6103 l
1.0308 0.6109 l
1.0310 0.6116 l
1.0312 0.6122 l
1.0315 0.6128 l
1.0317 0.6134 l
1.0319 0.6140 l
1.0321 0.6147 l
1.0323 0.6153 l
1.0325 0.6159 l
1.0328 0.6165 l
1.0330 0.6171 l
1.0332 0.6177 l
1.0334 0.6183 l
1.0336 0.6189 l
1.0338 0.6195 l
1.0340 0.6201 l
1.0343 0.6207 l
1.0345 0.6213 l
1.0347 0.6219 l
1.0349 0.6225 l
1.0351 0.6231 l
1.0353 0.6237 l
1.0355 0.6243 l
1.0357 0.6248 l
1.0359 0.6254 l
1.0361 0.6260 l
1.0363 0.6266 l
1.0365 0.6272 l
1.0367 0.6277 l
1.0369 0.6283 l
1.0371 0.6289 l
1.0373 0.6294 l
1.0375 0.6300 l
1.0377 0.6306 l
1.0379 0.6311 l
1.0381 0.6317 l
1.0383 0.6323 l
1.0385 0.6328 l
1.0387 0.6334 l
1.0389 0.6339 l
1.0391 0.6345 l
1.0393 0.6350 l
1.0395 0.6356 l
1.0397 0.6361 l
1.0399 0.6367 l
1.0401 0.6372 l
1.0403 0.6377 l
1.0405 0.6383 l
1.0407 0.6388 l
1.0408 0.6394 l
1.0410 0.6399 l
1.0412 0.6404 l
1.0414 0.6409 l
1.0416 0.6415 l
1.0418 0.6420 l
1.0420 0.6425 l
1.0421 0.6430 l
1.0423 0.6436 l
1.0425 0.6441 l
1.0427 0.6446 l
1.0429 0.6451 l
1.0431 0.6456 l
1.0432 0.6461 l
1.0434 0.6466 l
1.0436 0.6471 l
1.0438 0.6476 l
1.0439 0.6481 l
1.0441 0.6486 l
1.0443 0.6491 l
1.0445 0.6496 l
1.0446 0.6501 l
1.0448 0.6506 l
1.0450 0.6511 l
1.0452 0.6516 l
1.0453 0.6521 l
1.0455 0.6526 l
1.0457 0.6531 l
1.0458 0.6535 l
1.0460 0.6540 l
1.0462 0.6545 l
1.0464 0.6550 l
1.0465 0.6555 l
1.0467 0.6559 l
1.0469 0.6564 l
1.0470 0.6569 l
1.0472 0.6573 l
1.0473 0.6578 l
1.0475 0.6583 l
1.0477 0.6587 l
1.0478 0.6592 l
1.0480 0.6596 l
1.0482 0.6601 l
1.0483 0.6605 l
1.0485 0.6610 l
1.0486 0.6615 l
1.0488 0.6619 l
1.0490 0.6623 l
1.0491 0.6628 l
1.0493 0.6632 l
1.0494 0.6637 l
1.0496 0.6641 l
1.0497 0.6645 l
1.0499 0.6650 l
1.0500 0.6654 l
1.0502 0.6658 l
1.0503 0.6663 l
1.0505 0.6667 l
1.0506 0.6671 l
1.0508 0.6676 l
1.0509 0.6680 l
1.0511 0.6684 l
1.0512 0.6688 l
1.0514 0.6692 l
1.0515 0.6696 l
1.0517 0.6701 l
1.0518 0.6705 l
1.0520 0.6709 l
1.0521 0.6713 l
1.0523 0.6717 l
1.0524 0.6721 l
1.0526 0.6725 l
1.0527 0.6729 l
1.0528 0.6733 l
1.0530 0.6737 l
1.0531 0.6741 l
1.0533 0.6745 l
1.0534 0.6749 l
1.0535 0.6753 l
1.0537 0.6756 l
1.0538 0.6760 l
1.0539 0.6764 l
1.0541 0.6768 l
1.0542 0.6772 l
1.0544 0.6776 l
1.0545 0.6779 l
1.0546 0.6783 l
1.0548 0.6787 l
1.0549 0.6791 l
1.0550 0.6794 l
1.0551 0.6798 l
1.0553 0.6802 l
1.0554 0.6805 l
1.0555 0.6809 l
1.0557 0.6812 l
1.0558 0.6816 l
1.0559 0.6820 l
1.0561 0.6823 l
1.0562 0.6827 l
1.0563 0.6830 l
1.0564 0.6834 l
1.0566 0.6837 l
1.0567 0.6841 l
1.0568 0.6844 l
1.0569 0.6847 l
1.0570 0.6851 l
1.0572 0.6854 l
1.0573 0.6858 l
1.0574 0.6861 l
1.0575 0.6864 l
1.0577 0.6867 l
1.0578 0.6871 l
1.0579 0.6874 l
1.0580 0.6877 l
1.0581 0.6881 l
1.0582 0.6884 l
1.0584 0.6887 l
1.0585 0.6890 l
1.0586 0.6893 l
1.0587 0.6896 l
1.0588 0.6900 l
1.0589 0.6903 l
1.0590 0.6906 l
1.0592 0.6909 l
1.0593 0.6912 l
1.0594 0.6915 l
1.0595 0.6918 l
1.0596 0.6921 l
1.0597 0.6924 l
1.0598 0.6927 l
1.0599 0.6930 l
1.0600 0.6933 l
1.0601 0.6936 l
1.0602 0.6939 l
1.0603 0.6941 l
1.0605 0.6944 l
1.0606 0.6947 l
1.0607 0.6950 l
1.0608 0.6953 l
1.0609 0.6956 l
1.0610 0.6958 l
1.0611 0.6961 l
1.0612 0.6964 l
1.0613 0.6966 l
1.0614 0.6969 l
1.0615 0.6972 l
1.0616 0.6974 l
1.0617 0.6977 l
1.0618 0.6980 l
1.0619 0.6982 l
1.0620 0.6985 l
1.0621 0.6988 l
1.0622 0.6990 l
1.0623 0.6993 l
1.0624 0.6995 l
1.0624 0.6998 l
1.0625 0.7000 l
1.0626 0.7003 l
1.0627 0.7005 l
1.0628 0.7007 l
1.0629 0.7010 l
1.0630 0.7012 l
1.0631 0.7015 l
1.0632 0.7017 l
1.0633 0.7019 l
1.0634 0.7022 l
1.0635 0.7024 l
1.0635 0.7026 l
1.0636 0.7028 l
1.0637 0.7031 l
1.0638 0.7033 l
1.0639 0.7035 l
1.0640 0.7037 l
1.0641 0.7039 l
1.0641 0.7042 l
1.0642 0.7044 l
1.0643 0.7046 l
1.0644 0.7048 l
1.0645 0.7050 l
1.0646 0.7052 l
1.0646 0.7054 l
1.0647 0.7056 l
1.0648 0.7058 l
1.0649 0.7060 l
1.0650 0.7062 l
1.0650 0.7064 l
1.0651 0.7066 l
1.0652 0.7068 l
1.0653 0.7070 l
1.0653 0.7072 l
1.0654 0.7074 l
1.0655 0.7076 l
1.0656 0.7077 l
1.0656 0.7079 l
1.0657 0.7081 l
1.0658 0.7083 l
1.0659 0.7085 l
1.0659 0.7086 l
1.0660 0.7088 l
1.0661 0.7090 l
1.0661 0.7092 l
1.0662 0.7093 l
1.0663 0.7095 l
1.0664 0.7097 l
1.0664 0.7098 l
1.0665 0.7100 l
1.0666 0.7101 l
1.0666 0.7103 l
1.0667 0.7104 l
1.0668 0.7106 l
1.0668 0.7108 l
1.0669 0.7109 l
1.0670 0.7110 l
1.0670 0.7112 l
1.0671 0.7113 l
1.0671 0.7115 l
1.0672 0.7116 l
1.0673 0.7118 l
1.0673 0.7119 l
1.0674 0.7120 l
1.0675 0.7122 l
1.0675 0.7123 l
1.0676 0.7124 l
1.0676 0.7126 l
1.0677 0.7127 l
1.0678 0.7128 l
1.0678 0.7129 l
1.0679 0.7131 l
1.0679 0.7132 l
1.0680 0.7133 l
1.0680 0.7134 l
1.0681 0.7135 l
1.0681 0.7137 l
1.0682 0.7138 l
1.0683 0.7139 l
1.0683 0.7140 l
1.0684 0.7141 l
1.0684 0.7142 l
1.0685 0.7143 l
1.0685 0.7144 l
1.0686 0.7145 l
1.0686 0.7146 l
1.0687 0.7147 l
1.0687 0.7148 l
1.0688 0.7149 l
1.0688 0.7150 l
1.0689 0.7151 l
1.0689 0.7152 l
1.0690 0.7152 l
1.0690 0.7153 l
1.0690 0.7154 l
1.0691 0.7155 l
1.0691 0.7156 l
1.0692 0.7156 l
1.0692 0.7157 l
1.0693 0.7158 l
1.0693 0.7159 l
1.0694 0.7159 l
1.0694 0.7160 l
1.0694 0.7161 l
1.0695 0.7161 l
1.0695 0.7162 l
1.0696 0.7163 l
1.0696 0.7163 l
1.0696 0.7164 l
1.0697 0.7164 l
1.0697 0.7165 l
1.0698 0.7165 l
1.0698 0.7166 l
1.0698 0.7166 l
1.0699 0.7167 l
1.0699 0.7167 l
1.0699 0.7168 l
1.0700 0.7168 l
1.0700 0.7169 l
1.0701 0.7169 l
1.0701 0.7169 l
1.0701 0.7170 l
1.0702 0.7170 l
1.0702 0.7170 l
1.0702 0.7171 l
1.0702 0.7171 l
1.0703 0.7171 l
1.0703 0.7171 l
1.0703 0.7172 l
1.0704 0.7172 l
1.0704 0.7172 l
1.0704 0.7172 l
1.0705 0.7172 l
1.0705 0.7173 l
1.0705 0.7173 l
1.0705 0.7173 l
1.0706 0.7173 l
1.0706 0.7173 l
1.0706 0.7173 l
1.0706 0.7173 l
1.0707 0.7173 l
1.0707 0.7173 l
1.0707 0.7173 l
1.0707 0.7173 l
1.0708 0.7173 l
1.0708 0.7173 l
1.0708 0.7173 l
1.0708 0.7173 l
1.0709 0.7173 l
1.0709 0.7173 l
1.0709 0.7172 l
1.0709 0.7172 l
1.0709 0.7172 l
1.0710 0.7172 l
1.0710 0.7172 l
1.0710 0.7172 l
1.0710 0.7171 l
1.0710 0.7171 l
1.0710 0.7171 l
1.0711 0.7170 l
1.0711 0.7170 l
1.0711 0.7170 l
1.0711 0.7169 l
1.0711 0.7169 l
1.0711 0.7169 l
1.0712 0.7168 l
1.0712 0.7168 l
1.0712 0.7167 l
1.0712 0.7167 l
1.0712 0.7167 l
1.0712 0.7166 l
1.0712 0.7166 l
1.0712 0.7165 l
1.0712 0.7164 l
1.0713 0.7164 l
1.0713 0.7163 l
1.0713 0.7163 l
1.0713 0.7162 l
1.0713 0.7162 l
1.0713 0.7161 l
1.0713 0.7160 l
1.0713 0.7160 l
1.0713 0.7159 l
1.0713 0.7158 l
1.0713 0.7157 l
1.0713 0.7157 l
1.0713 0.7156 l
1.0714 0.7155 l
1.0714 0.7154 l
1.0714 0.7154 l
1.0714 0.7153 l
1.0714 0.7152 l
1.0714 0.7151 l
1.0714 0.7150 l
1.0714 0.7149 l
1.0714 0.7148 l
1.0714 0.7147 l
1.0714 0.7147 l
1.0714 0.7146 l
1.0714 0.7145 l
1.0714 0.7144 l
1.0714 0.7143 l
1.0714 0.7142 l
1.0714 0.7141 l
1.0714 0.7139 l
1.0714 0.7138 l
1.0714 0.7137 l
1.0714 0.7136 l
1.0714 0.7135 l
1.0713 0.7134 l
1.0713 0.7133 l
1.0713 0.7132 l
1.0713 0.7130 l
1.0713 0.7129 l
1.0713 0.7128 l
1.0713 0.7127 l
1.0713 0.7125 l
1.0713 0.7124 l
1.0713 0.7123 l
1.0713 0.7122 l
1.0713 0.7120 l
1.0713 0.7119 l
1.0713 0.7117 l
1.0712 0.7116 l
1.0712 0.7115 l
1.0712 0.7113 l
1.0712 0.7112 l
1.0712 0.7110 l
1.0712 0.7109 l
1.0712 0.7107 l
1.0712 0.7106 l
1.0712 0.7104 l
1.0711 0.7103 l
1.0711 0.7101 l
1.0711 0.7100 l
1.0711 0.7098 l
1.0711 0.7097 l
1.0711 0.7095 l
1.0710 0.7093 l
1.0710 0.7092 l
1.0710 0.7090 l
1.0710 0.7088 l
1.0710 0.7087 l
1.0710 0.7085 l
1.0709 0.7083 l
1.0709 0.7082 l
1.0709 0.7080 l
1.0709 0.7078 l
1.0709 0.7076 l
1.0708 0.7074 l
1.0708 0.7073 l
1.0708 0.7071 l
1.0708 0.7069 l
1.0708 0.7067 l
1.0707 0.7065 l
1.0707 0.7063 l
1.0707 0.7061 l
1.0707 0.7059 l
1.0706 0.7057 l
1.0706 0.7055 l
1.0706 0.7053 l
1.0706 0.7051 l
1.0705 0.7049 l
1.0705 0.7047 l
1.0705 0.7045 l
1.0705 0.7043 l
1.0704 0.7041 l
1.0704 0.7039 l
1.0704 0.7037 l
1.0704 0.7035 l
1.0703 0.7032 l
1.0703 0.7030 l
1.0703 0.7028 l
1.0702 0.7026 l
1.0702 0.7024 l
1.0702 0.7021 l
1.0702 0.7019 l
1.0701 0.7017 l
1.0701 0.7014 l
1.0701 0.7012 l
1.0700 0.7010 l
1.0700 0.7007 l
1.0700 0.7005 l
1.0699 0.7003 l
1.0699 0.7000 l
1.0699 0.6998 l
1.0698 0.6995 l
1.0698 0.6993 l
1.0698 0.6991 l
1.0697 0.6988 l
1.0697 0.6986 l
1.0697 0.6983 l
1.0696 0.6981 l
1.0696 0.6978 l
1.0695 0.6975 l
1.0695 0.6973 l
1.0695 0.6970 l
1.0694 0.6968 l
1.0694 0.6965 l
1.0694 0.6962 l
1.0693 0.6960 l
1.0693 0.6957 l
1.0692 0.6954 l
1.0692 0.6952 l
1.0692 0.6949 l
1.0691 0.6946 l
1.0691 0.6943 l
1.0690 0.6941 l
1.0690 0.6938 l
1.0689 0.6935 l
1.0689 0.6932 l
1.0689 0.6929 l
1.0688 0.6927 l
1.0688 0.6924 l
1.0687 0.6921 l
1.0687 0.6918 l
1.0686 0.6915 l
1.0686 0.6912 l
1.0685 0.6909 l
1.0685 0.6906 l
1.0685 0.6903 l
1.0684 0.6900 l
1.0684 0.6897 l
1.0683 0.6894 l
1.0683 0.6891 l
1.0682 0.6888 l
1.0682 0.6885 l
1.0681 0.6882 l
1.0681 0.6879 l
1.0680 0.6875 l
1.0680 0.6872 l
1.0679 0.6869 l
1.0679 0.6866 l
1.0678 0.6863 l
1.0678 0.6859 l
1.0677 0.6856 l
1.0677 0.6853 l
1.0676 0.6850 l
1.0676 0.6846 l
1.0675 0.6843 l
1.0675 0.6840 l
1.0674 0.6836 l
1.0673 0.6833 l
1.0673 0.6830 l
1.0672 0.6826 l
1.0672 0.6823 l
1.0671 0.6820 l
1.0671 0.6816 l
1.0670 0.6813 l
1.0670 0.6809 l
1.0669 0.6806 l
1.0668 0.6802 l
1.0668 0.6799 l
1.0667 0.6795 l
1.0667 0.6792 l
1.0666 0.6788 l
1.0666 0.6784 l
1.0665 0.6781 l
1.0664 0.6777 l
1.0664 0.6774 l
1.0663 0.6770 l
1.0663 0.6766 l
1.0662 0.6763 l
1.0661 0.6759 l
1.0661 0.6755 l
1.0660 0.6752 l
1.0659 0.6748 l
1.0659 0.6744 l
1.0658 0.6740 l
1.0658 0.6736 l
1.0657 0.6733 l
1.0656 0.6729 l
1.0656 0.6725 l
1.0655 0.6721 l
1.0654 0.6717 l
1.0654 0.6713 l
1.0653 0.6710 l
1.0652 0.6706 l
1.0652 0.6702 l
1.0651 0.6698 l
1.0650 0.6694 l
1.0650 0.6690 l
1.0649 0.6686 l
1.0648 0.6682 l
1.0648 0.6678 l
1.0647 0.6674 l
1.0646 0.6670 l
1.0646 0.6665 l
1.0645 0.6661 l
1.0644 0.6657 l
1.0644 0.6653 l
1.0643 0.6649 l
1.0642 0.6645 l
1.0641 0.6641 l
1.0641 0.6636 l
1.0640 0.6632 l
1.0639 0.6628 l
1.0639 0.6624 l
1.0638 0.6620 l
1.0637 0.6615 l
1.0636 0.6611 l
1.0636 0.6607 l
1.0635 0.6602 l
1.0634 0.6598 l
1.0633 0.6594 l
1.0633 0.6589 l
1.0632 0.6585 l
1.0631 0.6580 l
1.0630 0.6576 l
1.0630 0.6572 l
1.0629 0.6567 l
1.0628 0.6563 l
1.0627 0.6558 l
1.0627 0.6554 l
1.0626 0.6549 l
1.0625 0.6545 l
1.0624 0.6540 l
1.0624 0.6536 l
1.0623 0.6531 l
1.0622 0.6526 l
1.0621 0.6522 l
1.0620 0.6517 l
1.0620 0.6512 l
1.0619 0.6508 l
1.0618 0.6503 l
1.0617 0.6498 l
1.0616 0.6494 l
1.0616 0.6489 l
1.0615 0.6484 l
1.0614 0.6480 l
1.0613 0.6475 l
1.0612 0.6470 l
1.0611 0.6465 l
1.0611 0.6460 l
1.0610 0.6455 l
1.0609 0.6451 l
1.0608 0.6446 l
1.0607 0.6441 l
1.0606 0.6436 l
1.0605 0.6431 l
1.0605 0.6426 l
1.0604 0.6421 l
1.0603 0.6416 l
1.0602 0.6411 l
1.0601 0.6406 l
1.0600 0.6401 l
1.0599 0.6396 l
1.0599 0.6391 l
1.0598 0.6386 l
1.0597 0.6381 l
1.0596 0.6376 l
1.0595 0.6371 l
1.0594 0.6366 l
1.0593 0.6361 l
1.0592 0.6355 l
1.0591 0.6350 l
1.0591 0.6345 l
1.0590 0.6340 l
1.0589 0.6335 l
1.0588 0.6329 l
1.0587 0.6324 l
1.0586 0.6319 l
1.0585 0.6314 l
1.0584 0.6308 l
1.0583 0.6303 l
1.0582 0.6298 l
1.0581 0.6292 l
1.0580 0.6287 l
1.0579 0.6281 l
1.0579 0.6276 l
1.0578 0.6271 l
1.0577 0.6265 l
1.0576 0.6260 l
1.0575 0.6254 l
1.0574 0.6249 l
1.0573 0.6243 l
1.0572 0.6238 l
1.0571 0.6232 l
1.0570 0.6227 l
1.0569 0.6221 l
1.0568 0.6216 l
1.0567 0.6210 l
1.0566 0.6204 l
1.0565 0.6199 l
1.0564 0.6193 l
1.0563 0.6188 l
1.0562 0.6182 l
1.0561 0.6176 l
1.0560 0.6171 l
1.0559 0.6165 l
1.0558 0.6159 l
1.0557 0.6153 l
1.0556 0.6148 l
1.0555 0.6142 l
1.0554 0.6136 l
1.0553 0.6130 l
1.0552 0.6124 l
1.0551 0.6119 l
1.0550 0.6113 l
1.0549 0.6107 l
1.0548 0.6101 l
1.0547 0.6095 l
1.0546 0.6089 l
1.0545 0.6083 l
1.0544 0.6077 l
1.0543 0.6071 l
1.0542 0.6065 l
1.0541 0.6059 l
1.0540 0.6053 l
1.0539 0.6047 l
1.0538 0.6041 l
1.0536 0.6035 l
1.0535 0.6029 l
1.0534 0.6023 l
1.0533 0.6017 l
1.0532 0.6011 l
1.0531 0.6005 l
1.0530 0.5998 l
1.0529 0.5992 l
1.0528 0.5986 l
1.0527 0.5980 l
1.0526 0.5974 l
1.0525 0.5967 l
1.0524 0.5961 l
1.0522 0.5955 l
1.0521 0.5949 l
1.0520 0.5942 l
1.0519 0.5936 l
1.0518 0.5930 l
1.0517 0.5923 l
1.0516 0.5917 l
1.0515 0.5911 l
1.0514 0.5904 l
1.0512 0.5898 l
1.0511 0.5891 l
1.0510 0.5885 l
1.0509 0.5878 l
1.0508 0.5872 l
1.0507 0.5866 l
1.0506 0.5859 l
1.0505 0.5852 l
1.0503 0.5846 l
1.0502 0.5839 l
1.0501 0.5833 l
1.0500 0.5826 l
1.0499 0.5820 l
1.0498 0.5813 l
1.0496 0.5806 l
1.0495 0.5800 l
1.0494 0.5793 l
1.0493 0.5786 l
1.0492 0.5780 l
1.0491 0.5773 l
1.0490 0.5766 l
1.0488 0.5760 l
1.0487 0.5753 l
1.0486 0.5746 l
1.0485 0.5739 l
1.0484 0.5732 l
1.0482 0.5726 l
1.0481 0.5719 l
1.0480 0.5712 l
1.0479 0.5705 l
1.0478 0.5698 l
1.0476 0.5691 l
1.0475 0.5684 l
1.0474 0.5678 l
1.0473 0.5671 l
1.0472 0.5664 l
1.0470 0.5657 l
1.0469 0.5650 l
1.0468 0.5643 l
1.0467 0.5636 l
1.0465 0.5629 l
1.0464 0.5622 l
1.0463 0.5615 l
1.0462 0.5607 l
1.0461 0.5600 l
1.0459 0.5593 l
1.0458 0.5586 l
1.0457 0.5579 l
1.0456 0.5572 l
1.0454 0.5565 l
1.0453 0.5557 l
1.0452 0.5550 l
1.0451 0.5543 l
1.0449 0.5536 l
1.0448 0.5529 l
1.0447 0.5521 l
1.0446 0.5514 l
1.0444 0.5507 l
1.0443 0.5499 l
1.0442 0.5492 l
1.0440 0.5485 l
1.0439 0.5477 l
1.0438 0.5470 l
1.0437 0.5463 l
1.0435 0.5455 l
1.0434 0.5448 l
1.0433 0.5440 l
1.0431 0.5433 l
1.0430 0.5425 l
1.0429 0.5418 l
1.0428 0.5410 l
1.0426 0.5403 l
1.0425 0.5395 l
1.0424 0.5388 l
1.0422 0.5380 l
1.0421 0.5373 l
1.0420 0.5365 l
1.0418 0.5358 l
1.0417 0.5350 l
1.0416 0.5342 l
1.0414 0.5335 l
1.0413 0.5327 l
1.0412 0.5319 l
1.0410 0.5312 l
1.0409 0.5304 l
1.0408 0.5296 l
1.0406 0.5288 l
1.0405 0.5281 l
1.0404 0.5273 l
1.0402 0.5265 l
1.0401 0.5257 l
1.0400 0.5249 l
1.0398 0.5242 l
1.0397 0.5234 l
1.0396 0.5226 l
1.0394 0.5218 l
1.0393 0.5210 l
1.0392 0.5202 l
1.0390 0.5194 l
1.0389 0.5186 l
1.0387 0.5178 l
1.0386 0.5170 l
1.0385 0.5162 l
1.0383 0.5154 l
1.0382 0.5146 l
1.0381 0.5138 l
1.0379 0.5130 l
1.0378 0.5122 l
1.0376 0.5114 l
1.0375 0.5106 l
1.0374 0.5098 l
1.0372 0.5090 l
1.0371 0.5082 l
1.0369 0.5073 l
1.0368 0.5065 l
1.0367 0.5057 l
1.0365 0.5049 l
1.0364 0.5041 l
1.0362 0.5032 l
1.0361 0.5024 l
1.0359 0.5016 l
1.0358 0.5008 l
1.0357 0.4999 l
1.0355 0.4991 l
1.0354 0.4983 l
1.0352 0.4974 l
1.0351 0.4966 l
1.0349 0.4958 l
1.0348 0.4949 l
1.0347 0.4941 l
1.0345 0.4932 l
1.0344 0.4924 l
1.0342 0.4915 l
1.0341 0.4907 l
1.0339 0.4898 l
1.0338 0.4890 l
1.0336 0.4881 l
1.0335 0.4873 l
1.0334 0.4864 l
1.0332 0.4856 l
1.0331 0.4847 l
1.0329 0.4839 l
1.0328 0.4830 l
1.0326 0.4821 l
1.0325 0.4813 l
1.0323 0.4804 l
1.0322 0.4795 l
1.0320 0.4787 l
1.0319 0.4778 l
1.0317 0.4769 l
1.0316 0.4761 l
1.0314 0.4752 l
1.0313 0.4743 l
1.0311 0.4734 l
1.0310 0.4726 l
1.0308 0.4717 l
1.0307 0.4708 l
1.0305 0.4699 l
1.0304 0.4690 l
1.0302 0.4681 l
1.0301 0.4673 l
1.0299 0.4664 l
1.0298 0.4655 l
1.0296 0.4646 l
1.0295 0.4637 l
1.0293 0.4628 l
1.0292 0.4619 l
1.0290 0.4610 l
1.0289 0.4601 l
1.0287 0.4592 l
1.0286 0.4583 l
1.0284 0.4574 l
1.0283 0.4565 l
1.0281 0.4556 l
1.0279 0.4547 l
1.0278 0.4538 l
1.0276 0.4528 l
1.0275 0.4519 l
1.0273 0.4510 l
1.0272 0.4501 l
1.0270 0.4492 l
1.0269 0.4483 l
1.0267 0.4473 l
1.0265 0.4464 l
1.0264 0.4455 l
1.0262 0.4446 l
1.0261 0.4436 l
1.0259 0.4427 l
1.0258 0.4418 l
1.0256 0.4408 l
1.0254 0.4399 l
1.0253 0.4390 l
1.0251 0.4380 l
1.0250 0.4371 l
1.0248 0.4362 l
1.0247 0.4352 l
1.0245 0.4343 l
1.0243 0.4333 l
1.0242 0.4324 l
1.0240 0.4314 l
1.0239 0.4305 l
1.0237 0.4295 l
1.0235 0.4286 l
1.0234 0.4276 l
1.0232 0.4267 l
1.0231 0.4257 l
1.0229 0.4248 l
1.0227 0.4238 l
1.0226 0.4228 l
1.0224 0.4219 l
1.0223 0.4209 l
1.0221 0.4200 l
1.0219 0.4190 l
1.0218 0.4180 l
1.0216 0.4171 l
1.0214 0.4161 l
1.0213 0.4151 l
1.0211 0.4141 l
1.0210 0.4132 l
1.0208 0.4122 l
1.0206 0.4112 l
1.0205 0.4102 l
1.0203 0.4092 l
1.0201 0.4083 l
1.0200 0.4073 l
1.0198 0.4063 l
1.0196 0.4053 l
1.0195 0.4043 l
1.0193 0.4033 l
1.0191 0.4023 l
1.0190 0.4013 l
1.0188 0.4003 l
1.0186 0.3993 l
1.0185 0.3983 l
1.0183 0.3973 l
1.0181 0.3963 l
1.0180 0.3953 l
1.0178 0.3943 l
1.0176 0.3933 l
1.0175 0.3923 l
1.0173 0.3913 l
1.0171 0.3903 l
1.0170 0.3893 l
1.0168 0.3883 l
1.0166 0.3873 l
1.0165 0.3862 l
s
[/DeviceRGB] SCS
Color1 SC
[] 0 SD
0.0015 SLW
n
0.1500 0.1500 m
1.1500 0.1500 l
s
n
0.1500 0.8500 m
1.1500 0.8500 l
s
n
0.1500 0.1500 m
0.1500 0.1600 l
s
n
0.1500 0.8500 m
0.1500 0.8400 l
s
n
0.3500 0.1500 m
0.3500 0.1600 l
s
n
0.3500 0.8500 m
0.3500 0.8400 l
s
n
0.5500 0.1500 m
0.5500 0.1600 l
s
n
0.5500 0.8500 m
0.5500 0.8400 l
s
n
0.7500 0.1500 m
0.7500 0.1600 l
s
n
0.7500 0.8500 m
0.7500 0.8400 l
s
n
0.9500 0.1500 m
0.9500 0.1600 l
s
n
0.9500 0.8500 m
0.9500 0.8400 l
s
n
1.1500 0.1500 m
1.1500 0.1600 l
s
n
1.1500 0.8500 m
1.1500 0.8400 l
s
n
0.2500 0.1500 m
0.2500 0.1700 l
s
n
0.2500 0.8500 m
0.2500 0.8300 l
s
n
0.4500 0.1500 m
0.4500 0.1700 l
s
n
0.4500 0.8500 m
0.4500 0.8300 l
s
n
0.6500 0.1500 m
0.6500 0.1700 l
s
n
0.6500 0.8500 m
0.6500 0.8300 l
s
n
0.8500 0.1500 m
0.8500 0.1700 l
s
n
0.8500 0.8500 m
0.8500 0.8300 l
s
n
1.0500 0.1500 m
1.0500 0.1700 l
s
n
1.0500 0.8500 m
1.0500 0.8300 l
s
/Times-Roman findfont
dup length dict begin
 {1 index /FID ne {def} {pop pop} ifelse} forall
 /Encoding DefEncoding def
 currentdict
end
/Font34 exch definefont pop
/Font34 FFSF
0.2386 0.1212 m
GS
[0.0280 0.0000 0.0000 0.0280 0 0] CC
(-4) show
GR
/Font34 FFSF
0.4386 0.1212 m
GS
[0.0280 0.0000 0.0000 0.0280 0 0] CC
(-2) show
GR
/Font34 FFSF
0.6433 0.1212 m
GS
[0.0280 0.0000 0.0000 0.0280 0 0] CC
(0) show
GR
/Font34 FFSF
0.8433 0.1212 m
GS
[0.0280 0.0000 0.0000 0.0280 0 0] CC
(2) show
GR
/Font34 FFSF
1.0433 0.1212 m
GS
[0.0280 0.0000 0.0000 0.0280 0 0] CC
(4) show
GR
/Font34 FFSF
0.6057 0.0825 m
GS
[0.0420 0.0000 0.0000 0.0420 0 0] CC
(X\(m\)) show
GR
n
0.1500 0.1500 m
0.1500 0.8500 l
s
n
1.1500 0.1500 m
1.1500 0.8500 l
s
n
0.1500 0.2375 m
0.1600 0.2375 l
s
n
1.1500 0.2375 m
1.1400 0.2375 l
s
n
0.1500 0.4125 m
0.1600 0.4125 l
s
n
1.1500 0.4125 m
1.1400 0.4125 l
s
n
0.1500 0.5875 m
0.1600 0.5875 l
s
n
1.1500 0.5875 m
1.1400 0.5875 l
s
n
0.1500 0.7625 m
0.1600 0.7625 l
s
n
1.1500 0.7625 m
1.1400 0.7625 l
s
n
0.1500 0.1500 m
0.1700 0.1500 l
s
n
1.1500 0.1500 m
1.1300 0.1500 l
s
n
0.1500 0.3250 m
0.1700 0.3250 l
s
n
1.1500 0.3250 m
1.1300 0.3250 l
s
n
0.1500 0.5000 m
0.1700 0.5000 l
s
n
1.1500 0.5000 m
1.1300 0.5000 l
s
n
0.1500 0.6750 m
0.1700 0.6750 l
s
n
1.1500 0.6750 m
1.1300 0.6750 l
s
n
0.1500 0.8500 m
0.1700 0.8500 l
s
n
1.1500 0.8500 m
1.1300 0.8500 l
s
/Font34 FFSF
0.1267 0.1408 m
GS
[0.0280 0.0000 0.0000 0.0280 0 0] CC
(0) show
GR
/Font34 FFSF
0.1290 0.3156 m
GS
[0.0280 0.0000 0.0000 0.0280 0 0] CC
(1) show
GR
/Font34 FFSF
0.1267 0.4906 m
GS
[0.0280 0.0000 0.0000 0.0280 0 0] CC
(2) show
GR
/Font34 FFSF
0.1278 0.6658 m
GS
[0.0280 0.0000 0.0000 0.0280 0 0] CC
(3) show
GR
/Font34 FFSF
0.1267 0.8406 m
GS
[0.0280 0.0000 0.0000 0.0280 0 0] CC
(4) show
GR
/Font34 FFSF
0.1092 0.4580 m
GS
[0.0000 0.0420 -0.0420 0.0000 0 0] CC
(Z\(m\)) show
GR
n
0.1500 0.1500 m
0.1500 0.8500 l
1.1500 0.8500 l
1.1500 0.1500 l
0.1500 0.1500 l
c
s
[] 0 SD
0.0105 SLW
n
0.2600 0.5770 m
0.2600 0.1500 l
1.0400 0.1500 l
1.0400 0.5770 l
0.2600 0.5770 l
c
s
/Font34 FFSF
0.3517 0.7647 m
GS
[0.0482 0.0000 0.0000 0.0482 0 0] CC
(Tiempo de vuelo = 1.414 s) show
GR
/Font34 FFSF
0.3837 0.9206 m
GS
[0.0490 0.0000 0.0000 0.0490 0 0] CC
(Trayetoria del tiro \(Z vs X\)) show
GR
%%Trailer
%%BoundingBox: 48 44 706 585
%%DocumentNeededResources: font Times-Roman
%%EOF
